// BETTERER RESULTS V2.
exports[`too-much-lint`] = {
  value: `{
    "packs/scripts/extract.ts:2917242279": [
      [363, 47, 3, "Unexpected any. Specify a different type.", "193409811"],
      [401, 23, 3, "Unexpected any. Specify a different type.", "193409811"]
    ],
    "packs/scripts/packman/compendium-pack.ts:3917443486": [
      [240, 43, 3, "Unexpected any. Specify a different type.", "193409811"]
    ],
    "packs/scripts/run-migration.ts:2058594556": [
      [49, 39, 3, "Unexpected any. Specify a different type.", "193409811"],
      [49, 45, 3, "Unexpected any. Specify a different type.", "193409811"]
    ],
    "src/module/actor/base.ts:2520914522": [
      [475, 28, 3, "Unexpected any. Specify a different type.", "193409811"],
      [633, 35, 3, "Unexpected any. Specify a different type.", "193409811"],
      [844, 22, 3, "Unexpected any. Specify a different type.", "193409811"],
      [1160, 41, 3, "Unexpected any. Specify a different type.", "193409811"]
    ],
    "src/module/actor/character/sheet.ts:1179673368": [
      [46, 67, 3, "Unexpected any. Specify a different type.", "193409811"],
      [99, 72, 3, "Unexpected any. Specify a different type.", "193409811"],
      [99, 77, 3, "Unexpected any. Specify a different type.", "193409811"],
      [107, 72, 3, "Unexpected any. Specify a different type.", "193409811"],
      [107, 77, 3, "Unexpected any. Specify a different type.", "193409811"],
      [166, 38, 3, "Unexpected any. Specify a different type.", "193409811"],
      [167, 25, 3, "Unexpected any. Specify a different type.", "193409811"],
      [226, 64, 3, "Unexpected any. Specify a different type.", "193409811"],
      [446, 30, 3, "Unexpected any. Specify a different type.", "193409811"],
      [529, 45, 3, "Unexpected any. Specify a different type.", "193409811"]
    ],
    "src/module/actor/creature/sheet.ts:3168209323": [
      [21, 25, 3, "Unexpected any. Specify a different type.", "193409811"]
    ],
    "src/module/actor/data/base.ts:170736285": [
      [46, 23, 3, "Unexpected any. Specify a different type.", "193409811"]
    ],
    "src/module/actor/familiar/index.ts:3444387614": [
      [110, 34, 3, "Unexpected any. Specify a different type.", "193409811"]
    ],
    "src/module/actor/hazard/sheet.ts:1521371685": [
      [65, 37, 3, "Unexpected any. Specify a different type.", "193409811"]
    ],
    "src/module/actor/loot/data.ts:1315209214": [
      [30, 19, 3, "Unexpected any. Specify a different type.", "193409811"]
    ],
    "src/module/actor/loot/index.ts:2108065777": [
      [131, 41, 3, "Unexpected any. Specify a different type.", "193409811"]
    ],
    "src/module/actor/loot/sheet.ts:39592566": [
      [52, 28, 3, "Unexpected any. Specify a different type.", "193409811"],
      [53, 25, 3, "Unexpected any. Specify a different type.", "193409811"]
    ],
    "src/module/actor/npc/index.ts:467927229": [
      [118, 17, 3, "Unexpected any. Specify a different type.", "193409811"],
      [195, 30, 3, "Unexpected any. Specify a different type.", "193409811"],
      [487, 51, 3, "Unexpected any. Specify a different type.", "193409811"]
    ],
    "src/module/actor/npc/legacy-edit-sheet.ts:4157649965": [
      [61, 38, 3, "Unexpected any. Specify a different type.", "193409811"],
      [62, 25, 3, "Unexpected any. Specify a different type.", "193409811"],
      [186, 45, 3, "Unexpected any. Specify a different type.", "193409811"]
    ],
    "src/module/actor/npc/legacy-sheet.ts:1107866718": [
      [329, 35, 3, "Unexpected any. Specify a different type.", "193409811"]
    ],
    "src/module/actor/npc/sheet.ts:855659547": [
      [95, 23, 3, "Unexpected any. Specify a different type.", "193409811"]
    ],
    "src/module/actor/sheet/base.ts:3868570594": [
      [94, 22, 3, "Unexpected any. Specify a different type.", "193409811"],
      [156, 36, 3, "Unexpected any. Specify a different type.", "193409811"],
      [173, 26, 3, "Unexpected any. Specify a different type.", "193409811"],
      [179, 38, 3, "Unexpected any. Specify a different type.", "193409811"],
      [183, 38, 3, "Unexpected any. Specify a different type.", "193409811"],
      [186, 34, 3, "Unexpected any. Specify a different type.", "193409811"],
      [989, 20, 3, "Unexpected any. Specify a different type.", "193409811"]
    ],
    "src/module/actor/vehicle/data.ts:1322998845": [
      [66, 19, 3, "Unexpected any. Specify a different type.", "193409811"]
    ],
    "src/module/actor/vehicle/sheet.ts:2523002569": [
      [23, 25, 3, "Unexpected any. Specify a different type.", "193409811"],
      [59, 38, 3, "Unexpected any. Specify a different type.", "193409811"],
      [72, 64, 3, "Unexpected any. Specify a different type.", "193409811"]
    ],
    "src/module/chat-message/listeners/degree-of-success.ts:2284416960": [
      [12, 44, 3, "Unexpected any. Specify a different type.", "193409811"]
    ],
    "src/module/item/base.ts:3340037289": [
      [186, 82, 3, "Unexpected any. Specify a different type.", "193409811"],
      [230, 24, 3, "Unexpected any. Specify a different type.", "193409811"],
      [295, 34, 3, "Unexpected any. Specify a different type.", "193409811"],
      [455, 28, 3, "Unexpected any. Specify a different type.", "193409811"],
      [495, 48, 3, "Unexpected any. Specify a different type.", "193409811"],
      [605, 41, 3, "Unexpected any. Specify a different type.", "193409811"]
    ],
    "src/module/item/condition/index.ts:2588659551": [
      [47, 41, 3, "Unexpected any. Specify a different type.", "193409811"]
    ],
    "src/module/item/consumable/data.ts:3494510": [
      [35, 13, 3, "Unexpected any. Specify a different type.", "193409811"]
    ],
    "src/module/item/data/helpers.ts:2819967488": [
      [14, 54, 3, "Unexpected any. Specify a different type.", "193409811"]
    ],
    "src/module/item/physical/data.ts:3983715280": [
      [62, 15, 3, "Unexpected any. Specify a different type.", "193409811"],
      [66, 15, 3, "Unexpected any. Specify a different type.", "193409811"],
      [71, 15, 3, "Unexpected any. Specify a different type.", "193409811"],
      [72, 14, 3, "Unexpected any. Specify a different type.", "193409811"],
      [73, 15, 3, "Unexpected any. Specify a different type.", "193409811"],
      [78, 13, 3, "Unexpected any. Specify a different type.", "193409811"]
    ],
    "src/module/item/sheet/base.ts:4277064229": [
      [44, 20, 3, "Unexpected any. Specify a different type.", "193409811"],
      [401, 60, 3, "Unexpected any. Specify a different type.", "193409811"],
      [401, 81, 3, "Unexpected any. Specify a different type.", "193409811"]
    ],
    "src/module/migration/migrations/603-reset-quick-roll-default.ts:844647149": [
      [6, 55, 3, "Unexpected any. Specify a different type.", "193409811"]
    ],
    "src/module/migration/migrations/604-fix-class-items.ts:3064198577": [
      [5, 36, 3, "Unexpected any. Specify a different type.", "193409811"]
    ],
    "src/module/migration/migrations/607-melee-item-damage-rolls.ts:1772177300": [
      [10, 50, 3, "Unexpected any. Specify a different type.", "193409811"]
    ],
    "src/module/migration/migrations/616-migrate-feat-prerequisites.ts:3761205565": [
      [9, 33, 3, "Unexpected any. Specify a different type.", "193409811"]
    ],
    "src/module/migration/migrations/617-fix-user-flags.ts:631281047": [
      [6, 55, 3, "Unexpected any. Specify a different type.", "193409811"]
    ],
    "src/module/modifiers.ts:1355438468": [
      [384, 19, 3, "Unexpected any. Specify a different type.", "193409811"]
    ],
    "src/module/rules/elements/base-speed.ts:1996910526": [
      [13, 43, 3, "Unexpected any. Specify a different type.", "193409811"],
      [21, 30, 3, "Unexpected any. Specify a different type.", "193409811"]
    ],
    "src/module/rules/elements/toggle-property.ts:2744523237": [
      [10, 31, 3, "Unexpected any. Specify a different type.", "193409811"]
    ],
    "src/module/rules/rule-element.ts:483858965": [
      [23, 46, 3, "Unexpected any. Specify a different type.", "193409811"],
      [202, 7, 3, "Unexpected any. Specify a different type.", "193409811"]
    ],
    "src/module/rules/rules-data-definitions.ts:3120793509": [
      [23, 11, 3, "Unexpected any. Specify a different type.", "193409811"]
    ],
    "src/module/rules/spells/mage-armor.ts:101623648": [
      [11, 41, 3, "Unexpected any. Specify a different type.", "193409811"]
    ],
    "src/module/settings/variant-rules.ts:197521892": [
      [117, 20, 3, "Unexpected any. Specify a different type.", "193409811"]
    ],
    "src/module/system/damage-roll-modifiers-dialog.ts:4086012685": [
      [32, 14, 3, "Unexpected any. Specify a different type.", "193409811"],
      [34, 24, 3, "Unexpected any. Specify a different type.", "193409811"],
      [34, 38, 3, "Unexpected any. Specify a different type.", "193409811"],
      [34, 53, 3, "Unexpected any. Specify a different type.", "193409811"],
      [47, 49, 3, "Unexpected any. Specify a different type.", "193409811"],
      [47, 64, 3, "Unexpected any. Specify a different type.", "193409811"],
      [99, 24, 3, "Unexpected any. Specify a different type.", "193409811"]
    ],
    "src/module/system/damage/weapon.ts:2239129766": [
      [125, 16, 3, "Unexpected any. Specify a different type.", "193409811"],
      [129, 20, 3, "Unexpected any. Specify a different type.", "193409811"],
      [517, 22, 3, "Unexpected any. Specify a different type.", "193409811"]
    ],
    "src/module/system/measure.ts:1918991066": [
      [1, 0, 14, "Do not use \\"@ts-nocheck\\" because it alters compilation errors.", "2721706152"]
    ],
    "src/module/system/trait-selector/basic.ts:749966122": [
      [121, 44, 3, "Unexpected any. Specify a different type.", "193409811"]
    ],
    "src/module/system/trait-selector/resistances.ts:2040726237": [
      [34, 20, 3, "Unexpected any. Specify a different type.", "193409811"],
      [80, 71, 3, "Unexpected any. Specify a different type.", "193409811"]
    ],
    "src/module/system/trait-selector/senses.ts:1197691439": [
      [20, 20, 3, "Unexpected any. Specify a different type.", "193409811"],
      [69, 71, 3, "Unexpected any. Specify a different type.", "193409811"]
    ],
    "src/module/system/trait-selector/speeds.ts:347181978": [
      [21, 20, 3, "Unexpected any. Specify a different type.", "193409811"],
      [27, 23, 3, "Unexpected any. Specify a different type.", "193409811"],
      [69, 71, 3, "Unexpected any. Specify a different type.", "193409811"]
    ],
    "src/module/system/trait-selector/weaknesses.ts:4195329230": [
      [24, 20, 3, "Unexpected any. Specify a different type.", "193409811"],
      [72, 71, 3, "Unexpected any. Specify a different type.", "193409811"]
    ],
    "src/pf2e.ts:1582829525": [
      [10, 46, 3, "Unexpected any. Specify a different type.", "193409811"]
    ],
    "src/scripts/actor/status-effects.ts:3414706203": [
      [435, 24, 3, "Unexpected any. Specify a different type.", "193409811"],
      [468, 32, 3, "Unexpected any. Specify a different type.", "193409811"],
      [512, 54, 3, "Unexpected any. Specify a different type.", "193409811"]
    ],
    "src/scripts/dice.ts:3235865381": [
      [9, 14, 3, "Unexpected any. Specify a different type.", "193409811"],
      [46, 15, 3, "Unexpected any. Specify a different type.", "193409811"],
      [48, 14, 3, "Unexpected any. Specify a different type.", "193409811"],
      [52, 17, 3, "Unexpected any. Specify a different type.", "193409811"],
      [53, 18, 3, "Unexpected any. Specify a different type.", "193409811"],
      [61, 34, 3, "Unexpected any. Specify a different type.", "193409811"],
      [61, 59, 3, "Unexpected any. Specify a different type.", "193409811"],
      [209, 24, 3, "Unexpected any. Specify a different type.", "193409811"],
      [212, 29, 3, "Unexpected any. Specify a different type.", "193409811"],
      [216, 17, 3, "Unexpected any. Specify a different type.", "193409811"],
      [218, 18, 3, "Unexpected any. Specify a different type.", "193409811"],
      [226, 34, 3, "Unexpected any. Specify a different type.", "193409811"]
    ],
    "src/scripts/hooks/hotbar-drop.ts:236590071": [
      [10, 46, 3, "Unexpected any. Specify a different type.", "193409811"]
    ],
    "src/scripts/macros/encouraging-words.ts:3276246680": [
      [14, 73, 3, "Unexpected any. Specify a different type.", "193409811"],
      [27, 29, 3, "Unexpected any. Specify a different type.", "193409811"]
    ],
    "src/scripts/macros/hotbar.ts:217059650": [
      [48, 29, 3, "Unexpected any. Specify a different type.", "193409811"],
      [70, 33, 3, "Unexpected any. Specify a different type.", "193409811"]
    ],
    "src/scripts/socket.ts:3033255322": [
      [5, 31, 3, "Unexpected any. Specify a different type.", "193409811"]
    ],
    "types/foundry/client/application/base.d.ts:1399480922": [
      [66, 17, 3, "Unexpected any. Specify a different type.", "193409811"]
    ],
    "types/foundry/client/application/form-application/base.d.ts:1181733692": [
      [35, 21, 3, "Unexpected any. Specify a different type.", "193409811"],
      [130, 40, 3, "Unexpected any. Specify a different type.", "193409811"],
      [148, 61, 3, "Unexpected any. Specify a different type.", "193409811"],
      [148, 75, 3, "Unexpected any. Specify a different type.", "193409811"],
      [150, 20, 3, "Unexpected any. Specify a different type.", "193409811"]
    ],
    "types/foundry/client/application/form-application/document-sheet/actor-sheet.d.ts:1024413240": [
      [8, 15, 3, "Unexpected any. Specify a different type.", "193409811"],
      [9, 14, 3, "Unexpected any. Specify a different type.", "193409811"],
      [10, 15, 3, "Unexpected any. Specify a different type.", "193409811"]
    ],
    "types/foundry/client/application/form-application/document-sheet/item-sheet.d.ts:2627130433": [
      [1, 10, 3, "Unexpected any. Specify a different type.", "193409811"],
      [2, 10, 3, "Unexpected any. Specify a different type.", "193409811"]
    ],
    "types/foundry/client/application/hud/container.d.ts:2812072147": [
      [18, 25, 3, "Unexpected any. Specify a different type.", "193409811"]
    ],
    "types/foundry/client/application/i18n.d.ts:4174921881": [
      [27, 26, 3, "Unexpected any. Specify a different type.", "193409811"],
      [38, 54, 3, "Unexpected any. Specify a different type.", "193409811"],
      [44, 57, 3, "Unexpected any. Specify a different type.", "193409811"]
    ],
    "types/foundry/client/application/sidebar/sidebar-tab/sidebar-directory/actor-directory.d.ts:3672367193": [
      [8, 19, 3, "Unexpected any. Specify a different type.", "193409811"]
    ],
    "types/foundry/client/application/sidebar/sidebar-tab/sidebar-directory/base.d.ts:2169934311": [
      [29, 72, 3, "Unexpected any. Specify a different type.", "193409811"]
    ],
    "types/foundry/client/application/sidebar/sidebar-tab/sidebar-directory/item-directory.d.ts:1100676135": [
      [8, 19, 3, "Unexpected any. Specify a different type.", "193409811"]
    ],
    "types/foundry/client/application/sidebar/sidebar-tab/sidebar-directory/roll-table-directory.d.ts:3809456354": [
      [5, 19, 3, "Unexpected any. Specify a different type.", "193409811"]
    ],
    "types/foundry/client/application/sidebar/sidebar.d.ts:2990665928": [
      [13, 25, 3, "Unexpected any. Specify a different type.", "193409811"]
    ],
    "types/foundry/client/collections/compendium-collection.d.ts:2509429209": [
      [194, 23, 3, "Unexpected any. Specify a different type.", "193409811"]
    ],
    "types/foundry/client/collections/document-collection.ts:3707144144": [
      [18, 39, 3, "Unexpected any. Specify a different type.", "193409811"]
    ],
    "types/foundry/client/config.d.ts:691177255": [
      [154, 24, 3, "Unexpected any. Specify a different type.", "193409811"],
      [247, 39, 3, "Unexpected any. Specify a different type.", "193409811"],
      [410, 24, 3, "Unexpected any. Specify a different type.", "193409811"]
    ],
    "types/foundry/client/core/audio.d.ts:374491586": [
      [6, 12, 3, "Unexpected any. Specify a different type.", "193409811"],
      [13, 13, 3, "Unexpected any. Specify a different type.", "193409811"],
      [49, 18, 3, "Unexpected any. Specify a different type.", "193409811"],
      [73, 25, 3, "Unexpected any. Specify a different type.", "193409811"]
    ],
    "types/foundry/client/core/hooks.d.ts:3597466941": [
      [2, 32, 3, "Unexpected any. Specify a different type.", "193409811"],
      [3, 52, 3, "Unexpected any. Specify a different type.", "193409811"],
      [8, 91, 3, "Unexpected any. Specify a different type.", "193409811"],
      [18, 78, 3, "Unexpected any. Specify a different type.", "193409811"],
      [22, 105, 3, "Unexpected any. Specify a different type.", "193409811"],
      [34, 78, 3, "Unexpected any. Specify a different type.", "193409811"],
      [65, 50, 3, "Unexpected any. Specify a different type.", "193409811"],
      [92, 52, 3, "Unexpected any. Specify a different type.", "193409811"],
      [110, 46, 3, "Unexpected any. Specify a different type.", "193409811"],
      [122, 43, 3, "Unexpected any. Specify a different type.", "193409811"]
    ],
    "types/foundry/client/core/keyboard.d.ts:1220124013": [
      [35, 10, 3, "Unexpected any. Specify a different type.", "193409811"]
    ],
    "types/foundry/client/core/settings.d.ts:3242980331": [
      [130, 38, 3, "Unexpected any. Specify a different type.", "193409811"],
      [145, 31, 3, "Unexpected any. Specify a different type.", "193409811"],
      [145, 45, 3, "Unexpected any. Specify a different type.", "193409811"]
    ],
    "types/foundry/client/core/socket.d.ts:64200521": [
      [22, 19, 3, "Unexpected any. Specify a different type.", "193409811"],
      [23, 17, 3, "Unexpected any. Specify a different type.", "193409811"],
      [32, 21, 3, "Unexpected any. Specify a different type.", "193409811"],
      [35, 15, 3, "Unexpected any. Specify a different type.", "193409811"],
      [41, 18, 3, "Unexpected any. Specify a different type.", "193409811"],
      [43, 60, 3, "Unexpected any. Specify a different type.", "193409811"],
      [44, 15, 3, "Unexpected any. Specify a different type.", "193409811"],
      [66, 19, 3, "Unexpected any. Specify a different type.", "193409811"],
      [67, 17, 3, "Unexpected any. Specify a different type.", "193409811"],
      [68, 17, 3, "Unexpected any. Specify a different type.", "193409811"],
      [77, 21, 3, "Unexpected any. Specify a different type.", "193409811"],
      [80, 15, 3, "Unexpected any. Specify a different type.", "193409811"],
      [87, 18, 3, "Unexpected any. Specify a different type.", "193409811"],
      [89, 60, 3, "Unexpected any. Specify a different type.", "193409811"],
      [90, 15, 3, "Unexpected any. Specify a different type.", "193409811"]
    ],
    "types/foundry/client/core/sorting.d.ts:2941707091": [
      [20, 16, 3, "Unexpected any. Specify a different type.", "193409811"],
      [26, 21, 3, "Unexpected any. Specify a different type.", "193409811"],
      [26, 36, 3, "Unexpected any. Specify a different type.", "193409811"],
      [27, 7, 3, "Unexpected any. Specify a different type.", "193409811"]
    ],
    "types/foundry/client/core/texteditor.d.ts:479762951": [
      [79, 103, 3, "Unexpected any. Specify a different type.", "193409811"],
      [90, 67, 3, "Unexpected any. Specify a different type.", "193409811"],
      [96, 81, 3, "Unexpected any. Specify a different type.", "193409811"]
    ],
    "types/foundry/client/core/video.d.ts:2704614969": [
      [6, 12, 3, "Unexpected any. Specify a different type.", "193409811"],
      [12, 17, 3, "Unexpected any. Specify a different type.", "193409811"]
    ],
    "types/foundry/client/documents/item.d.ts:3313452218": [
      [60, 45, 3, "Unexpected any. Specify a different type.", "193409811"]
    ],
    "types/foundry/client/documents/mixins/canvas-document-mixin.d.ts:130292156": [
      [16, 22, 3, "Unexpected any. Specify a different type.", "193409811"],
      [21, 57, 3, "Unexpected any. Specify a different type.", "193409811"]
    ],
    "types/foundry/client/documents/mixins/client-document-mixin.d.ts:2260836778": [
      [8, 18, 3, "Unexpected any. Specify a different type.", "193409811"],
      [65, 43, 3, "Unexpected any. Specify a different type.", "193409811"],
      [163, 17, 3, "Unexpected any. Specify a different type.", "193409811"],
      [164, 19, 3, "Unexpected any. Specify a different type.", "193409811"],
      [167, 21, 3, "Unexpected any. Specify a different type.", "193409811"],
      [305, 44, 3, "Unexpected any. Specify a different type.", "193409811"]
    ],
    "types/foundry/client/game.d.ts:3406435058": [
      [129, 56, 3, "Unexpected any. Specify a different type.", "193409811"],
      [134, 56, 3, "Unexpected any. Specify a different type.", "193409811"],
      [154, 32, 3, "Unexpected any. Specify a different type.", "193409811"],
      [189, 21, 3, "Unexpected any. Specify a different type.", "193409811"]
    ],
    "types/foundry/client/pixi/mouse-interaction-manager.d.ts:3012252643": [
      [86, 18, 3, "Unexpected any. Specify a different type.", "193409811"],
      [106, 44, 3, "Unexpected any. Specify a different type.", "193409811"],
      [149, 46, 3, "Unexpected any. Specify a different type.", "193409811"],
      [154, 45, 3, "Unexpected any. Specify a different type.", "193409811"],
      [164, 46, 3, "Unexpected any. Specify a different type.", "193409811"],
      [174, 47, 3, "Unexpected any. Specify a different type.", "193409811"],
      [184, 46, 3, "Unexpected any. Specify a different type.", "193409811"],
      [194, 48, 3, "Unexpected any. Specify a different type.", "193409811"],
      [203, 46, 3, "Unexpected any. Specify a different type.", "193409811"],
      [208, 46, 3, "Unexpected any. Specify a different type.", "193409811"],
      [213, 45, 3, "Unexpected any. Specify a different type.", "193409811"]
    ],
    "types/foundry/client/pixi/placeables-layer/base.d.ts:2403392165": [
      [130, 20, 3, "Unexpected any. Specify a different type.", "193409811"],
      [154, 20, 3, "Unexpected any. Specify a different type.", "193409811"],
      [160, 31, 3, "Unexpected any. Specify a different type.", "193409811"],
      [170, 25, 3, "Unexpected any. Specify a different type.", "193409811"],
      [170, 42, 3, "Unexpected any. Specify a different type.", "193409811"],
      [170, 56, 3, "Unexpected any. Specify a different type.", "193409811"],
      [182, 44, 3, "Unexpected any. Specify a different type.", "193409811"],
      [182, 58, 3, "Unexpected any. Specify a different type.", "193409811"],
      [235, 29, 3, "Unexpected any. Specify a different type.", "193409811"],
      [236, 29, 3, "Unexpected any. Specify a different type.", "193409811"]
    ],
    "types/foundry/client/roll/roll-term/base.d.ts:4189454490": [
      [129, 43, 3, "Unexpected any. Specify a different type.", "193409811"]
    ],
    "types/foundry/client/ui/context.d.ts:3427016054": [
      [20, 19, 3, "Unexpected any. Specify a different type.", "193409811"],
      [42, 15, 3, "Unexpected any. Specify a different type.", "193409811"],
      [52, 16, 3, "Unexpected any. Specify a different type.", "193409811"],
      [64, 50, 3, "Unexpected any. Specify a different type.", "193409811"],
      [66, 51, 3, "Unexpected any. Specify a different type.", "193409811"],
      [73, 19, 3, "Unexpected any. Specify a different type.", "193409811"],
      [73, 33, 3, "Unexpected any. Specify a different type.", "193409811"]
    ],
    "types/foundry/client/ui/filepicker.d.ts:274431795": [
      [9, 13, 3, "Unexpected any. Specify a different type.", "193409811"],
      [47, 18, 3, "Unexpected any. Specify a different type.", "193409811"],
      [68, 54, 3, "Unexpected any. Specify a different type.", "193409811"],
      [86, 15, 3, "Unexpected any. Specify a different type.", "193409811"],
      [109, 45, 3, "Unexpected any. Specify a different type.", "193409811"],
      [121, 37, 3, "Unexpected any. Specify a different type.", "193409811"],
      [126, 37, 3, "Unexpected any. Specify a different type.", "193409811"],
      [128, 45, 3, "Unexpected any. Specify a different type.", "193409811"],
      [138, 36, 3, "Unexpected any. Specify a different type.", "193409811"],
      [143, 44, 3, "Unexpected any. Specify a different type.", "193409811"]
    ],
    "types/foundry/common/abstract/data.d.ts:350156468": [
      [20, 35, 3, "Unexpected any. Specify a different type.", "193409811"],
      [22, 34, 3, "Unexpected any. Specify a different type.", "193409811"]
    ],
    "types/foundry/common/abstract/document.d.ts:3994453266": [
      [36, 51, 3, "Unexpected any. Specify a different type.", "193409811"],
      [164, 63, 3, "Unexpected any. Specify a different type.", "193409811"],
      [549, 29, 3, "Unexpected any. Specify a different type.", "193409811"],
      [553, 55, 3, "Unexpected any. Specify a different type.", "193409811"]
    ],
    "types/foundry/common/data/data/actor-data.d.ts:1727647713": [
      [73, 42, 3, "Unexpected any. Specify a different type.", "193409811"]
    ],
    "types/foundry/common/utils/collection.d.ts:738862421": [
      [111, 31, 3, "Unexpected any. Specify a different type.", "193409811"],
      [113, 43, 3, "Unexpected any. Specify a different type.", "193409811"]
    ],
    "types/foundry/common/utils/helpers.d.ts:3028281548": [
      [12, 50, 3, "Unexpected any. Specify a different type.", "193409811"],
      [26, 29, 3, "Unexpected any. Specify a different type.", "193409811"],
      [26, 40, 3, "Unexpected any. Specify a different type.", "193409811"],
      [26, 45, 3, "Unexpected any. Specify a different type.", "193409811"],
      [26, 77, 3, "Unexpected any. Specify a different type.", "193409811"],
      [81, 36, 3, "Unexpected any. Specify a different type.", "193409811"],
      [163, 63, 3, "Unexpected any. Specify a different type.", "193409811"],
      [175, 69, 3, "Unexpected any. Specify a different type.", "193409811"]
    ]
  }`
};
