{
    "_id": "3WPo7m6rJQh9L7MN",
    "data": {
        "boosts": {
            "0": {
                "value": [
                    "cha",
                    "int"
                ]
            },
            "1": {
                "value": [
                    "cha",
                    "con",
                    "dex",
                    "int",
                    "str",
                    "wis"
                ]
            }
        },
        "description": {
            "value": "<p>As a diplomat or messenger, you traveled to lands far and wide. Communicating with new people and forming alliances were your stock and trade.</p>\n<p>Choose two ability boosts. One must be to <strong>Intelligence</strong> or <strong>Charisma</strong>, and one is a free ability boost.</p>\n<p>You're trained in the Society skill and a Lore skill related to one city you've visited often. You gain the @Compendium[pf2e.feats-srd.Multilingual]{Multilingual} skill feat.</p>"
        },
        "items": {
            "cxx9n": {
                "id": "P9HCz0uR6xPHuw72",
                "img": "systems/pf2e/icons/features/feats/feats.webp",
                "level": "1",
                "name": "Multilingual",
                "pack": "pf2e.feats-srd"
            }
        },
        "rules": [],
        "source": {
            "value": "Pathfinder Core Rulebook"
        },
        "trainedLore": "<City> Lore",
        "trainedSkills": {
            "value": [
                "soc"
            ]
        },
        "traits": {
            "custom": "",
            "rarity": {
                "value": "common"
            },
            "value": []
        }
    },
    "effects": [],
    "flags": {},
    "img": "systems/pf2e/icons/default-icons/background.svg",
    "name": "Emissary",
    "type": "background"
}
