{
    "_id": "cODrdTvko4Om26ik",
    "data": {
        "boosts": {
            "0": {
                "value": [
                    "int",
                    "str"
                ]
            },
            "1": {
                "value": [
                    "cha",
                    "con",
                    "dex",
                    "int",
                    "str",
                    "wis"
                ]
            }
        },
        "description": {
            "value": "<p>The intricate inner workings of machines are no stranger to you. Whether they are mundane devices or complex clockworks, you know what makes them tick and how to maintain them. An adventuring group might keep you around to repair their equipment, or you might travel around to offer your rare services to those in need-for a price, of course!</p>\n<p>Choose two ability boosts. One must be to <strong>Strength</strong> or <strong>Intelligence</strong>, and one is a free ability boost.</p>\n<p>You're trained in the Crafting skill and the Engineering Lore skill. You gain the @Compendium[pf2e.feats-srd.Quick Repair]{Quick Repair} skill feat.</p>"
        },
        "items": {
            "rp23j": {
                "id": "ASy9AKEIRxPYUi5o",
                "img": "systems/pf2e/icons/features/feats/feats.webp",
                "level": 1,
                "name": "Quick Repair",
                "pack": "pf2e.feats-srd"
            }
        },
        "rules": [],
        "source": {
            "value": "Pathfinder Guns & Gears"
        },
        "trainedLore": "Engineering",
        "trainedSkills": {
            "custom": "",
            "value": [
                "cra"
            ]
        },
        "traits": {
            "custom": "",
            "rarity": {
                "value": "common"
            },
            "value": []
        }
    },
    "effects": [],
    "flags": {},
    "img": "systems/pf2e/icons/default-icons/background.svg",
    "name": "Mechanic",
    "type": "background"
}
