{
    "_id": "dAvFZ5QmbAHgXcNp",
    "data": {
        "boosts": {
            "0": {
                "value": [
                    "con",
                    "wis"
                ]
            },
            "1": {
                "value": [
                    "cha",
                    "con",
                    "dex",
                    "int",
                    "str",
                    "wis"
                ]
            }
        },
        "description": {
            "value": "<p>In your youth, you galloped on horseback over vast prairies, serving as a vanguard for your settlement, an army, or another group. Seeing so many different lands built a thirst in you to adventure and explore the world instead of just racing past it.</p>\n<p>Choose two ability boosts. One must be to <strong>Constitution</strong> or <strong>Wisdom</strong>, and one is a free ability boost.</p>\n<p>You're trained in the Nature skill and the Plains Lore skill. You gain the @Compendium[pf2e.feats-srd.Express Rider]{Express Rider} skill feat.</p>"
        },
        "items": {
            "vfq3c": {
                "id": "gArdEleFCvUHtdGk",
                "img": "systems/pf2e/icons/features/feats/feats.webp",
                "level": "1",
                "name": "Express Rider",
                "pack": "pf2e.feats-srd"
            }
        },
        "rules": [],
        "source": {
            "value": "Pathfinder Advanced Player's Guide"
        },
        "trainedLore": "Plains Lore",
        "trainedSkills": {
            "value": [
                "nat"
            ]
        },
        "traits": {
            "custom": "",
            "rarity": {
                "value": "common"
            },
            "value": []
        }
    },
    "effects": [],
    "flags": {},
    "img": "systems/pf2e/icons/default-icons/background.svg",
    "name": "Outrider",
    "type": "background"
}
