{
    "_id": "vE6nb2OSIXqprDXk",
    "data": {
        "boosts": {
            "0": {
                "value": [
                    "con",
                    "wis"
                ]
            },
            "1": {
                "value": [
                    "cha",
                    "con",
                    "dex",
                    "int",
                    "str",
                    "wis"
                ]
            }
        },
        "description": {
            "value": "<p>You joined the Sally Guard, Westgate's guard precinct, at an early age, bringing with you the requisite steel armor, sword, and lance, though your gear is of dubious make. The other guards may have suspected that you were a novice with less combat experience than them; if so, you proved their suspicions on your first day of training when your mount immediately threw you in the mud. A supervisor took mercy on you and offered to transfer you to another guard unit in the city, promising that you'd have a place on the Sally Guard when you decided you were ready for the challenge.</p>\n<p>Biting your lip in shame, you took the Edgewatch reassignment in order to gain the experience necessary to go back to your home district with your head held high. You'll prove them wrong, one way or another, and show everyone that you can protect the ones you hold most dear.</p>\n<p>Choose two ability boosts. One must be to <strong>Constitution</strong> or <strong>Wisdom</strong>, and one is a free ability boost.</p>\n<p>You're trained in the Nature skill and your choice of Hunting Lore or Stabling Lore. You start out with a @Compendium[pf2e.pathfinder-bestiary.Riding Horse]{Riding Horse}, as well as a suit of shoddy @Compendium[pf2e.equipment-srd.Half Plate]{Half Plate} armor, a shoddy @Compendium[pf2e.equipment-srd.Longsword]{Longsword}, and a shoddy @Compendium[pf2e.equipment-srd.Lance]{Lance}.</p>"
        },
        "items": {},
        "rules": [],
        "source": {
            "value": "Pathfinder: Agents of Edgewatch Player's Guide"
        },
        "trainedLore": "Hunting Lore or Stabling Lore",
        "trainedSkills": {
            "value": [
                "nat"
            ]
        },
        "traits": {
            "custom": "",
            "rarity": {
                "value": "common"
            },
            "value": []
        }
    },
    "effects": [],
    "flags": {},
    "img": "systems/pf2e/icons/default-icons/background.svg",
    "name": "Sally Guard Neophyte",
    "type": "background"
}
