{
    "_id": "yo6kdcUhqv5YyMM5",
    "data": {
        "baseItem": null,
        "brokenThreshold": {
            "value": 0
        },
        "bulkCapacity": {
            "value": ""
        },
        "collapsed": {
            "value": false
        },
        "containerId": {
            "value": null
        },
        "description": {
            "value": "<p>These prosthetic feet and legs, created by dwarven alchemists and spellcasters together, are engraved with simple but effective evocation symbols on the ball and heel, empowering you to leap to great heights and blast foes with your feet.</p>\n<hr />\n<p><strong>Activate</strong> <span class=\"pf2-icon\">1</span> envision;</p>\n<p><strong>Frequency</strong> once per minute;</p>\n<p><strong>Effect</strong> You blast off from the ground, using the force to leap through the air. The <em>blast feet</em> cast <em>@Compendium[pf2e.spells-srd.Jump]{Jump}</em> on you.</p>\n<hr />\n<p><strong>Activate</strong> <span class=\"pf2-icon\">2</span> envision, Interact;</p>\n<p><strong>Frequency</strong> once per day;</p>\n<p><strong>Effect</strong> You blast from your feet, dealing [[/r {8d6}[force]]]{8d6 force damage} to all creatures in a @Template[type:cone|distance:30], with a <span data-pf2-check=\"reflex\" data-pf2-traits=\"evocation,magical,damaging-effect\" data-pf2-label=\"Blast Foot DC\" data-pf2-dc=\"27\">basic Reflex</span> save.</p>"
        },
        "equipped": {
            "value": false
        },
        "equippedBulk": {
            "value": ""
        },
        "hardness": {
            "value": 0
        },
        "hp": {
            "value": 0
        },
        "identification": {
            "misidentified": {},
            "status": "identified",
            "unidentified": {
                "data": {
                    "description": {
                        "value": ""
                    }
                },
                "img": "",
                "name": ""
            }
        },
        "invested": {
            "value": null
        },
        "level": {
            "value": 10
        },
        "maxHp": {
            "value": 0
        },
        "negateBulk": {
            "value": "0"
        },
        "preciousMaterial": {
            "value": null
        },
        "preciousMaterialGrade": {
            "value": null
        },
        "price": {
            "value": "1000 gp"
        },
        "quantity": {
            "value": 1
        },
        "rules": [],
        "size": {
            "value": "med"
        },
        "source": {
            "value": "Pathfinder Lost Omens: The Grand Bazaar"
        },
        "stackGroup": {
            "value": ""
        },
        "traits": {
            "custom": "",
            "rarity": {
                "value": "common"
            },
            "value": []
        },
        "usage": {
            "value": "worn"
        },
        "weight": {
            "value": "1"
        }
    },
    "effects": [],
    "flags": {},
    "img": "systems/pf2e/icons/default-icons/equipment.svg",
    "name": "Blast Foot (Greater)",
    "type": "equipment"
}
