{
    "_id": "7U16hk57BHVM5QYs",
    "data": {
        "baseItem": null,
        "brokenThreshold": {
            "value": 0
        },
        "bulkCapacity": {
            "value": ""
        },
        "collapsed": {
            "value": false
        },
        "containerId": {
            "value": null
        },
        "description": {
            "value": "<p>A <em>greater reading ring</em> is personalized to its user and capable of reading any written language and enable the wearer to comprehend what it reads. Each ring is unique and can't be used by anyone other than its specific bonded user. A <em>greater reading ring</em> is bonded to its user in a process that taps into the user's inner potential, similar to an invested item, except the process takes 10 minutes, is permanent, and doesn't count toward your number of invested items. You can wear the ring in various ways, often either on a finger or a chain worn about your person if you can't have it on a digit. You can use the <em>greater reading ring</em> to read text by taking an Interact action, and you read with the ring at roughly the same rate as a visual reader. There is no limit to how often you can use the ring to read in this manner.</p>"
        },
        "equipped": {
            "value": false
        },
        "equippedBulk": {
            "value": ""
        },
        "hardness": {
            "value": 0
        },
        "hp": {
            "value": 0
        },
        "identification": {
            "misidentified": {},
            "status": "identified",
            "unidentified": {
                "data": {
                    "description": {
                        "value": ""
                    }
                },
                "img": "",
                "name": ""
            }
        },
        "invested": {
            "value": null
        },
        "level": {
            "value": 12
        },
        "maxHp": {
            "value": 0
        },
        "negateBulk": {
            "value": "0"
        },
        "preciousMaterial": {
            "value": null
        },
        "preciousMaterialGrade": {
            "value": null
        },
        "price": {
            "value": "1800 gp"
        },
        "quantity": {
            "value": 1
        },
        "rules": [],
        "size": {
            "value": "med"
        },
        "source": {
            "value": "Pathfinder Lost Omens: The Grand Bazaar"
        },
        "stackGroup": {
            "value": ""
        },
        "traits": {
            "custom": "",
            "rarity": {
                "value": "common"
            },
            "value": []
        },
        "usage": {
            "value": "worn"
        },
        "weight": {
            "value": "-"
        }
    },
    "effects": [],
    "flags": {},
    "img": "systems/pf2e/icons/default-icons/equipment.svg",
    "name": "Reading Ring (Greater)",
    "type": "equipment"
}
