{
    "_id": "vx5bG5YNeC78u49n",
    "data": {
        "baseItem": null,
        "brokenThreshold": {
            "value": 0
        },
        "bulkCapacity": {
            "value": ""
        },
        "collapsed": {
            "value": false
        },
        "containerId": {
            "value": null
        },
        "description": {
            "value": "<p>Many cultures of Golarion have a tattoo to turn away harm; as such, warding tattoos often resemble whichever dangers are most common to the culture, such as a wild beast or a whirlpool in the high seas of the Shackles.</p>\n<hr />\n<p><strong>Activate</strong> <span class=\"pf2-icon\">r</span> envision;</p>\n<p><strong>Frequency</strong> once per day;</p>\n<p><strong>Trigger</strong> An enemy, hazard, or the environment makes an attack against your AC, requires you to attempt a saving throw, or causes you to take damage automatically;</p>\n<p><strong>Effect</strong> Until the end of the current turn, against the triggering effect, you gain a +1 status bonus to AC and saving throws and gain resistance 2 to damage.</p>"
        },
        "equipped": {
            "value": false
        },
        "equippedBulk": {
            "value": ""
        },
        "hardness": {
            "value": 0
        },
        "hp": {
            "value": 0
        },
        "identification": {
            "misidentified": {},
            "status": "identified",
            "unidentified": {
                "data": {
                    "description": {
                        "value": ""
                    }
                },
                "img": "",
                "name": ""
            }
        },
        "invested": {
            "value": null
        },
        "level": {
            "value": 5
        },
        "maxHp": {
            "value": 0
        },
        "negateBulk": {
            "value": "0"
        },
        "preciousMaterial": {
            "value": null
        },
        "preciousMaterialGrade": {
            "value": null
        },
        "price": {
            "value": "140 gp"
        },
        "quantity": {
            "value": 1
        },
        "rules": [
            {
                "key": "ToggleProperty",
                "property": "flags.pf2e.rollOptions.all.wardingTattoo"
            },
            {
                "key": "FlatModifier",
                "predicate": {
                    "all": [
                        "wardingTattoo"
                    ]
                },
                "selector": "saving-throw",
                "type": "status",
                "value": 1
            },
            {
                "key": "FlatModifier",
                "predicate": {
                    "all": [
                        "wardingTattoo"
                    ]
                },
                "selector": "ac",
                "type": "status",
                "value": 1
            }
        ],
        "size": {
            "value": "med"
        },
        "source": {
            "value": "Pathfinder Secrets of Magic"
        },
        "stackGroup": {
            "value": ""
        },
        "traits": {
            "custom": "",
            "rarity": {
                "value": "common"
            },
            "value": [
                "abjuration",
                "invested",
                "magical",
                "tattoo"
            ]
        },
        "usage": {
            "value": "tattooed-on-the-body"
        },
        "weight": {
            "value": "-"
        }
    },
    "effects": [],
    "flags": {},
    "img": "systems/pf2e/icons/default-icons/equipment.svg",
    "name": "Warding Tattoo",
    "type": "equipment"
}
