{
    "_id": "LZiiTvbxfgJ3QfIQ",
    "data": {
        "attributes": {
            "ac": {
                "value": 16
            },
            "hardness": 0,
            "hasHealth": true,
            "hp": {
                "details": "",
                "max": 20,
                "temp": 0,
                "value": 20
            },
            "stealth": {
                "details": "",
                "value": 7
            }
        },
        "creatureType": "",
        "details": {
            "description": "<p>A sheer slick of ice causes anyone other than Ssalarn who attempts to cross it to slip and fall.</p>",
            "disable": "<p><span class=\"pf2-icon\">2</span> <span data-pf2-check=\"athletics\" data-pf2-traits=\"environmental\" data-pf2-label=\"Break Ice Slick DC\" data-pf2-dc=\"18\" data-pf2-show-dc=\"gm\">Athletics</span> to break the ice and roughen its surface</p>",
            "isComplex": false,
            "level": {
                "value": 0
            },
            "reset": "",
            "routine": ""
        },
        "saves": {
            "fortitude": {
                "saveDetail": "",
                "value": 10
            },
            "reflex": {
                "saveDetail": "",
                "value": 4
            },
            "will": {
                "saveDetail": "",
                "value": 0
            }
        },
        "source": {
            "value": "Pathfinder Bounty #1: The Whitefang Wyrm"
        },
        "statusEffects": [],
        "traits": {
            "ci": [],
            "di": {
                "custom": "",
                "selected": {},
                "value": [
                    "critical-hits",
                    "object-immunities",
                    "precision"
                ]
            },
            "dr": [],
            "dv": [],
            "rarity": {
                "value": "common"
            },
            "size": {
                "value": "med"
            },
            "traits": {
                "custom": "",
                "value": [
                    "environmental",
                    "trap"
                ]
            }
        }
    },
    "effects": [],
    "flags": {},
    "img": "systems/pf2e/icons/default-icons/hazard.svg",
    "items": [
        {
            "_id": "JjaALZ4hZdcjjhAS",
            "data": {
                "actionCategory": {
                    "value": "offensive"
                },
                "actionType": {
                    "value": "reaction"
                },
                "actions": {
                    "value": null
                },
                "description": {
                    "value": "<p data-visibility=\"gm\"><strong>Trigger</strong> A creature walks onto the ice slick;</p>\n<p><strong>Effect</strong> The target must attempt a <span data-pf2-check=\"acrobatics\" data-pf2-traits=\"environmental\" data-pf2-label=\"Balance DC\" data-pf2-dc=\"15\" data-pf2-show-dc=\"gm\">Athletics</span> check to @Compendium[pf2e.action-macros.Balance: Acrobatics]{Balance}. If it fails this check, it falls @Compendium[pf2e.conditionitems.Prone]{Prone} and slides 10 feet in the direction it was moving when this reaction was triggered. If this movement is stopped by a wall, the target takes 1d6 bludgeoning damage per 5 feet of prevented movement. If this forced movement moves the target through another creature's space, that other creature must succeed at a <span data-pf2-check=\"reflex\" data-pf2-label=\"Tripped by Sliding Ally DC\" data-pf2-dc=\"14\" data-pf2-show-dc=\"gm\">Reflex</span> save or be knocked prone as well.</p>\n<hr />\n<p>5 foot damage: [[/r {1d6}[bludgeoning]]]{1d6 bludgeoning damage}</p>\n<p>10 foot damage: [[/r {2d6}[bludgeoning]]]{2d6 bludgeoning damage}</p>"
                },
                "requirements": {
                    "value": ""
                },
                "rules": [],
                "slug": null,
                "source": {
                    "value": ""
                },
                "traits": {
                    "custom": "",
                    "rarity": {
                        "value": "common"
                    },
                    "value": []
                },
                "trigger": {
                    "value": ""
                },
                "weapon": {
                    "value": ""
                }
            },
            "effects": [],
            "flags": {},
            "img": "systems/pf2e/icons/actions/Reaction.webp",
            "name": "Slip and Slide",
            "sort": 0,
            "type": "action"
        }
    ],
    "name": "Ice Slick",
    "token": {
        "disposition": 0,
        "height": 1,
        "img": "systems/pf2e/icons/default-icons/hazard.svg",
        "name": "Ice Slick",
        "width": 1
    },
    "type": "hazard"
}
