{
    "_id": "mZpX54PgTxPta5y4",
    "data": {
        "actionCategory": {
            "value": "defensive"
        },
        "actionType": {
            "value": "passive"
        },
        "actions": {
            "value": null
        },
        "description": {
            "value": "<p>The graveknight's curse extends to their shield, or the graveknight's armor uses a portion of itself to produce a shield.</p>\n<p>The graveknight has a shield that uses the statistics of a <em>@Compendium[pf2e.equipment-srd.Sturdy Shield (Minor)]{Sturdy Shield}</em> of a level no higher than the graveknight's level - 1.</p>\n<p>The shield is quasi-independent of the graveknight and automatically protects the graveknight from harm. When the shield is raised, it automatically uses Shield Block to reduce the damage of the first attack against the graveknight each round without the graveknight needing to spend their reaction to do so.</p>\n<p>The shield automatically rejuvenates with the rest of the graveknight and must be destroyed in the same manner as the graveknight's armor.</p>"
        },
        "requirements": {
            "value": ""
        },
        "rules": [],
        "source": {
            "value": "Pathfinder #172: Secrets of the Temple-City"
        },
        "traits": {
            "custom": "",
            "rarity": {
                "value": "common"
            },
            "value": [
                "arcane",
                "necromancy"
            ]
        },
        "trigger": {
            "value": ""
        }
    },
    "effects": [],
    "flags": {},
    "img": "systems/pf2e/icons/actions/Passive.webp",
    "name": "(Graveknight) Graveknight's Shield",
    "type": "action"
}
