{
    "_id": "ltUT288ryJyBTyPv",
    "data": {
        "attributes": {
            "hp": {
                "temp": 0,
                "value": null
            }
        },
        "details": {
            "creature": {
                "value": "Nine-Tailed Fox"
            }
        },
        "master": {
            "ability": "int",
            "id": "4z5dbU5grPK9XSYg"
        },
        "resources": {},
        "saves": {
            "fortitude": {
                "value": 0
            },
            "reflex": {
                "value": 0
            },
            "will": {
                "value": 0
            }
        }
    },
    "effects": [],
    "flags": {},
    "img": "systems/pf2e/icons/iconics/DajiFull.webp",
    "items": [
        {
            "_id": "6XzISl0XQUGTa8l0",
            "data": {
                "description": {
                    "value": "<p>It gains scent (imprecise, 30 feet).</p>"
                },
                "duration": {
                    "expiry": "turn-start",
                    "sustained": false,
                    "unit": "rounds",
                    "value": 0
                },
                "level": {
                    "value": 1
                },
                "rules": [
                    {
                        "acuity": "imprecise",
                        "key": "Sense",
                        "label": "PF2E.SensesScent",
                        "range": 30,
                        "selector": "scent"
                    }
                ],
                "slug": "scent",
                "source": {
                    "value": ""
                },
                "start": {
                    "initiative": null,
                    "value": 0
                },
                "target": null,
                "tokenIcon": {
                    "show": false
                },
                "traits": {
                    "custom": "",
                    "rarity": {
                        "value": "common"
                    },
                    "value": []
                }
            },
            "effects": [],
            "flags": {
                "core": {
                    "sourceId": "Compendium.pf2e.familiar-abilities.FlRUb8U13Crj3NaA"
                }
            },
            "img": "systems/pf2e/icons/default-icons/mystery-man.svg",
            "name": "Scent",
            "sort": 100000,
            "type": "effect"
        }
    ],
    "name": "Daji (Level 1)",
    "token": {
        "disposition": 1,
        "height": 0.5,
        "img": "systems/pf2e/icons/iconics/Daji.webp",
        "name": "Daji",
        "width": 0.5
    },
    "type": "familiar"
}
