{
    "_id": "NNfsKAHcKvTuyha4",
    "content": "<table class=\"pf2-table\">\n<thead>\n<tr>\n<th>\n<h3><strong>Name</strong></h3>\n</th>\n<th>\n<h3><strong>Crit Effect</strong></h3>\n</th>\n<th>\n<h3><strong>Type</strong></h3>\n</th>\n</tr>\n</thead>\n<tbody>\n<tr>\n<td>Sorry!</td>\n<td>You hit and ally adjacent to your or an ally adjacent to the target.</td>\n<td>\n<h3>Melee</h3>\n</td>\n</tr>\n<tr>\n<td>Lost the Target</td>\n<td>You take a -2 circumstance penalty to attack rolls until the end of your next turn.</td>\n<td>\n<h3>Ranged</h3>\n</td>\n</tr>\n<tr>\n<td>Sprain</td>\n<td>Until healed, you are clumsy 2.</td>\n<td>\n<h3>Unarmed</h3>\n</td>\n</tr>\n<tr>\n<td>Weakened</td>\n<td>You take -2 circumstance penalty to spell attack rolls and spell DC's until the end of your next turn.</td>\n<td>\n<h3>Spell</h3>\n</td>\n</tr>\n</tbody>\n</table>\n<h3 style=\"text-align: left;\"> </h3>",
    "flags": {},
    "name": "Critical Fumble Deck #36",
    "permission": {
        "default": 0
    }
}
