{
    "_id": "f1JjbSLpmPw5McIb",
    "content": "<table class=\"pf2-table\">\n<thead>\n<tr>\n<th>\n<h3><strong>Name</strong></h3>\n</th>\n<th>\n<h3><strong>Crit Effect</strong></h3>\n</th>\n<th>\n<h3><strong>Type</strong></h3>\n</th>\n</tr>\n</thead>\n<tbody>\n<tr>\n<td>\n<h3>Shield Smack</h3>\n</td>\n<td>\n<h3>The target must succeed at a Reflex save or drop a shield it's holding.</h3>\n</td>\n<td>\n<h3>Bludgeoning</h3>\n</td>\n</tr>\n<tr>\n<td>\n<h3>Penetrating Wound</h3>\n</td>\n<td>\n<h3>The Attack ignores all resistances.</h3>\n</td>\n<td>\n<h3>Piercing</h3>\n</td>\n</tr>\n<tr>\n<td>\n<h3>Muscle Wound</h3>\n</td>\n<td>\n<h3>The target is enfeebled 2 until healed.</h3>\n</td>\n<td>\n<h3>Slashing</h3>\n</td>\n</tr>\n<tr>\n<td>\n<h3>Intense Strike</h3>\n</td>\n<td>\n<h3>The attack ignores all resistances.</h3>\n</td>\n<td>\n<h3>Bomb or Spell</h3>\n</td>\n</tr>\n</tbody>\n</table>\n<h3 style=\"text-align: left;\"> </h3>",
    "flags": {},
    "name": "Critical Hit Deck #42",
    "permission": {
        "default": 0
    }
}
