{
    "_id": "9auIrnhXBCHnO5Ww",
    "data": {
        "abilities": {
            "cha": {
                "mod": -2
            },
            "con": {
                "mod": 1
            },
            "dex": {
                "mod": 4
            },
            "int": {
                "mod": -5
            },
            "str": {
                "mod": -3
            },
            "wis": {
                "mod": 2
            }
        },
        "attributes": {
            "ac": {
                "details": "",
                "value": 17
            },
            "allSaves": {
                "value": ""
            },
            "hp": {
                "details": "",
                "max": 16,
                "temp": 0,
                "value": 16
            },
            "initiative": {
                "ability": "perception"
            },
            "perception": {
                "value": 8
            },
            "shield": {
                "ac": 0,
                "brokenThreshold": 0,
                "hardness": 0,
                "max": 0,
                "value": 0
            },
            "speed": {
                "otherSpeeds": [
                    {
                        "label": "Fly",
                        "type": "fly",
                        "value": "30"
                    }
                ],
                "value": "10"
            }
        },
        "details": {
            "alignment": {
                "value": "N"
            },
            "blurb": "",
            "creatureType": "Animal",
            "level": {
                "value": 1
            },
            "privateNotes": "",
            "publicNotes": "Scourges of swamps and damp, abandoned places, bloodseekers are ravenous blood drinkers. Farmers curse the creatures for sucking their livestock dry. It is from such beleaguered people that the bloodseeker's regional name \"stirge\", possibly a corruption of the word \"scourge\", comes. Folk wisdom holds that the appearance of bloodseekers in a region signals a healthy herd of livestock, but more often it means bogs or old buildings that haven't been properly tended to. Certainly, no amount of folksy parable can assuage a farmer driven to destitution by a bloodseeker infestation. But despite their role as parasites, bloodseekers aren't hated by all villages. In some cases, the inhabitants of remote backwoods thorps even keep the things as pets or use them as doubtful medicinal \"tools\" to drain away unwanted humors or test for evil spirits possessing the blood. Worshippers of gods of pestilence and parasites often view bloodseekers as sacred to their faith and allow the creatures to feed freely from their bodies. In such societies, those who accidentally give too much are considered to have been \"blessed\" by the village's hungry god.</p>\n<p>Bloodseekers seem to be constantly hungry, but they are not inherently malevolent. They can be scared away fairly easily and prefer to swiftly retreat rather than risk death. Some adventurers report that these creatures can be scared away by waving torches at the flying pests. However, bloodseekers are much bolder when encountered in larger numbers, as bringing down one victim lets an entire colony feed. Bloodseeker colonies are called clots, for obvious and disgusting reasons. If a lone bloodseeker finds a likely victim while its clot is nearby, it emits a high-pitched, keening noise to summon reinforcements.</p>\n<p>Most humanoids avoid bloodseekers, but boggards sometimes cultivate bloodseeker nests around the perimeter of their territory. These colonies serve as a deterrent to intruders, and the boggards sometimes check for bloodseeker prey, collecting the hides or bodies of animals killed by the pests. Meals prepared from slain bloodseekers that have gorged on the blood of specific creatures are a staple among certain boggard communities. The boggards not only eat the actual bloodseekers, but they also make a gelled slurry from the drained blood.</p>\n<p>A typical bloodseeker is about a foot long, with mottled, reddish-brown skin and a yellow underbelly. Its four wings resemble bat wings. When gorged with blood, the creature becomes bloated and pink, and it tends to wobble unsteadily in the air as it flies off to digest its meal.",
            "source": {
                "value": "Pathfinder Society Intro: Year of Shattered Sanctuaries"
            }
        },
        "resources": {},
        "saves": {
            "fortitude": {
                "saveDetail": "",
                "value": 7
            },
            "reflex": {
                "saveDetail": "",
                "value": 10
            },
            "will": {
                "saveDetail": "",
                "value": 6
            }
        },
        "traits": {
            "attitude": {
                "value": "hostile"
            },
            "ci": [],
            "di": {
                "custom": "",
                "value": []
            },
            "dr": [],
            "dv": [],
            "languages": {
                "custom": "",
                "selected": [],
                "value": []
            },
            "rarity": {
                "value": "uncommon"
            },
            "senses": {
                "value": "darkvision, scent (imprecise) 60 feet"
            },
            "size": {
                "value": "tiny"
            },
            "traits": {
                "custom": "",
                "value": [
                    "animal",
                    "shadow"
                ]
            }
        }
    },
    "effects": [],
    "flags": {},
    "img": "systems/pf2e/icons/default-icons/npc.svg",
    "items": [
        {
            "_id": "a9nhBEqNFJ9N1rH5",
            "data": {
                "attack": {
                    "value": ""
                },
                "attackEffects": {
                    "custom": "",
                    "value": [
                        "attach"
                    ]
                },
                "bonus": {
                    "value": 9
                },
                "damageRolls": {},
                "description": {
                    "value": ""
                },
                "rules": [],
                "slug": null,
                "source": {
                    "value": ""
                },
                "traits": {
                    "custom": "",
                    "rarity": {
                        "value": "common"
                    },
                    "value": [
                        "finesse"
                    ]
                },
                "weaponType": {
                    "value": "melee"
                }
            },
            "effects": [],
            "flags": {},
            "img": "systems/pf2e/icons/default-icons/mystery-man.svg",
            "name": "Barbed Leg",
            "sort": 100000,
            "type": "melee"
        },
        {
            "_id": "oQxGeLSQxmxGUQ1l",
            "data": {
                "actionCategory": {
                    "value": "interaction"
                },
                "actionType": {
                    "value": "passive"
                },
                "actions": {
                    "value": null
                },
                "description": {
                    "value": "<p>@Localize[PF2E.NPC.Abilities.Glossary.Darkvision]</p>"
                },
                "requirements": {
                    "value": ""
                },
                "rules": [],
                "slug": "darkvision",
                "source": {
                    "value": ""
                },
                "traits": {
                    "custom": "",
                    "rarity": {
                        "value": "common"
                    },
                    "value": []
                },
                "trigger": {
                    "value": ""
                },
                "weapon": {
                    "value": ""
                }
            },
            "effects": [],
            "flags": {
                "core": {
                    "sourceId": "Compendium.pf2e.bestiary-ability-glossary-srd.qCCLZhnp2HhP3Ex6"
                }
            },
            "img": "systems/pf2e/icons/default-icons/action.svg",
            "name": "Darkvision",
            "sort": 200000,
            "type": "action"
        },
        {
            "_id": "yLq2DsGvZs0Z0aZN",
            "data": {
                "actionCategory": {
                    "value": "interaction"
                },
                "actionType": {
                    "value": "passive"
                },
                "actions": {
                    "value": null
                },
                "description": {
                    "value": "<p>@Localize[PF2E.NPC.Abilities.Glossary.Scent]</p>"
                },
                "requirements": {
                    "value": ""
                },
                "rules": [],
                "slug": "scent",
                "source": {
                    "value": ""
                },
                "traits": {
                    "custom": "",
                    "rarity": {
                        "value": "common"
                    },
                    "value": []
                },
                "trigger": {
                    "value": ""
                },
                "weapon": {
                    "value": ""
                }
            },
            "effects": [],
            "flags": {
                "core": {
                    "sourceId": "Compendium.pf2e.bestiary-ability-glossary-srd.rqfnQ5VHT5hxm25r"
                }
            },
            "img": "systems/pf2e/icons/actions/Passive.webp",
            "name": "Scent (Imprecise) 60 feet",
            "sort": 300000,
            "type": "action"
        },
        {
            "_id": "JVIBnOUuWnNu8a5N",
            "data": {
                "actionCategory": {
                    "value": "defensive"
                },
                "actionType": {
                    "value": "passive"
                },
                "actions": {
                    "value": null
                },
                "description": {
                    "value": "<p>Coated in darkness, a shrouded bloodseeker is @Compendium[pf2e.conditionitems.Concealed]{Concealed} in bright light as if it were in dim light, even to creatures that can see clearly in those light levels.</p>"
                },
                "requirements": {
                    "value": ""
                },
                "rules": [],
                "slug": null,
                "source": {
                    "value": ""
                },
                "traits": {
                    "custom": "",
                    "rarity": {
                        "value": "common"
                    },
                    "value": []
                },
                "trigger": {
                    "value": ""
                },
                "weapon": {
                    "value": ""
                }
            },
            "effects": [],
            "flags": {},
            "img": "systems/pf2e/icons/actions/Passive.webp",
            "name": "Umbral Shroud",
            "sort": 400000,
            "type": "action"
        },
        {
            "_id": "QEvRlTqwOEac04ov",
            "data": {
                "actionCategory": {
                    "value": "offensive"
                },
                "actionType": {
                    "value": "passive"
                },
                "actions": {
                    "value": null
                },
                "description": {
                    "value": "<p>When a bloodseeker hits a target larger than itself, its barbed legs attach it to that creature. This is similar to grabbing the creature, but the bloodseeker moves with that creature rather than holding it in place.</p>\n<p>The bloodseeker is @Compendium[pf2e.conditionitems.Flat-Footed]{Flat-Footed} while attached. If the bloodseeker is killed or pushed away while attached to a creature it has drained blood from, that creature takes [[/r 1 #persistent bleed]] @Compendium[pf2e.conditionitems.Persistent Damage]{Persistent Bleed Damage}.</p>\n<p>Escaping the attach or removing the bloodseeker in other ways doesn't cause bleed damage.</p>"
                },
                "requirements": {
                    "value": ""
                },
                "rules": [],
                "slug": null,
                "source": {
                    "value": ""
                },
                "traits": {
                    "custom": "",
                    "rarity": {
                        "value": "common"
                    },
                    "value": []
                },
                "trigger": {
                    "value": ""
                },
                "weapon": {
                    "value": ""
                }
            },
            "effects": [],
            "flags": {},
            "img": "systems/pf2e/icons/actions/Passive.webp",
            "name": "Attach",
            "sort": 500000,
            "type": "action"
        },
        {
            "_id": "YwidZ8QmOJ85iLcw",
            "data": {
                "actionCategory": {
                    "value": "offensive"
                },
                "actionType": {
                    "value": "action"
                },
                "actions": {
                    "value": 1
                },
                "description": {
                    "value": "<p><strong>Requirements</strong> The bloodseeker is attached to a creature.</p>\n<p><strong>Effect</strong> The bloodseeker uses its proboscis to drain blood from the creature it's attached to. This deals [[/r 1d8]]{1d8 damage}<span data-visibility=\"gm\">, and the bloodseeker gains temporary Hit Points equal to the damage dealt</span>.</p>\n<p>A creature that has its blood drained by a bloodseeker is @Compendium[pf2e.conditionitems.Drained]{Drained 1}<span data-visibility=\"gm\"> until it receives healing (of any kind or amount)</span>.</p>"
                },
                "requirements": {
                    "value": ""
                },
                "rules": [],
                "slug": null,
                "source": {
                    "value": ""
                },
                "traits": {
                    "custom": "",
                    "rarity": {
                        "value": "common"
                    },
                    "value": []
                },
                "trigger": {
                    "value": ""
                },
                "weapon": {
                    "value": ""
                }
            },
            "effects": [],
            "flags": {},
            "img": "systems/pf2e/icons/actions/OneAction.webp",
            "name": "Blood Drain",
            "sort": 600000,
            "type": "action"
        },
        {
            "_id": "oHUlPXpuTFUHKAtS",
            "data": {
                "description": {
                    "value": ""
                },
                "item": {
                    "value": 0
                },
                "mod": {
                    "value": 8
                },
                "proficient": {
                    "value": 0
                },
                "rules": [],
                "slug": null,
                "source": {
                    "value": ""
                },
                "traits": {
                    "custom": "",
                    "rarity": {
                        "value": "common"
                    },
                    "value": []
                }
            },
            "effects": [],
            "flags": {},
            "img": "systems/pf2e/icons/default-icons/lore.svg",
            "name": "Acrobatics",
            "sort": 700000,
            "type": "lore"
        },
        {
            "_id": "ciSHQDq6CMAp4EqW",
            "data": {
                "description": {
                    "value": ""
                },
                "item": {
                    "value": 0
                },
                "mod": {
                    "value": 8
                },
                "proficient": {
                    "value": 0
                },
                "rules": [],
                "slug": null,
                "source": {
                    "value": ""
                },
                "traits": {
                    "custom": "",
                    "rarity": {
                        "value": "common"
                    },
                    "value": []
                }
            },
            "effects": [],
            "flags": {},
            "img": "systems/pf2e/icons/default-icons/lore.svg",
            "name": "Stealth",
            "sort": 800000,
            "type": "lore"
        }
    ],
    "name": "Shrouded Bloodseeker",
    "token": {
        "disposition": -1,
        "height": 0.5,
        "img": "systems/pf2e/icons/default-icons/npc.svg",
        "name": "Shrouded Bloodseeker",
        "width": 0.5
    },
    "type": "npc"
}
