{
    "_id": "vf59nmtYaF0se9Ui",
    "data": {
        "abilities": {
            "cha": {
                "mod": 6
            },
            "con": {
                "mod": 5
            },
            "dex": {
                "mod": 7
            },
            "int": {
                "mod": 5
            },
            "str": {
                "mod": 8
            },
            "wis": {
                "mod": 5
            }
        },
        "attributes": {
            "ac": {
                "details": "",
                "value": 40
            },
            "allSaves": {
                "value": ""
            },
            "hp": {
                "details": "Thresholds 300 (12 squares), 150 (8 squares)",
                "max": 450,
                "temp": 0,
                "value": 450
            },
            "initiative": {
                "ability": "perception"
            },
            "perception": {
                "value": 28
            },
            "shield": {
                "ac": 0,
                "brokenThreshold": 0,
                "hardness": 0,
                "max": 0,
                "value": 0
            },
            "speed": {
                "otherSpeeds": [],
                "value": "25"
            }
        },
        "details": {
            "alignment": {
                "value": "CN"
            },
            "blurb": "",
            "creatureType": "",
            "level": {
                "value": 19
            },
            "privateNotes": "",
            "publicNotes": "",
            "source": {
                "value": "Pathfinder #168: King of the Mountain"
            }
        },
        "resources": {},
        "saves": {
            "fortitude": {
                "saveDetail": "",
                "value": 32
            },
            "reflex": {
                "saveDetail": "",
                "value": 26
            },
            "will": {
                "saveDetail": "",
                "value": 34
            }
        },
        "traits": {
            "ci": [],
            "di": {
                "custom": "",
                "value": []
            },
            "dr": [],
            "dv": [
                {
                    "label": "Bludgeoning",
                    "type": "bludgeoning",
                    "value": "15"
                },
                {
                    "label": "Area Damage",
                    "type": "area-damage",
                    "value": "20"
                },
                {
                    "label": "Splash Damage",
                    "type": "splash-damage",
                    "value": "10"
                }
            ],
            "languages": {
                "custom": "",
                "selected": [],
                "value": []
            },
            "rarity": {
                "value": "unique"
            },
            "senses": {
                "value": "darkvision"
            },
            "size": {
                "value": "grg"
            },
            "traits": {
                "custom": "",
                "value": [
                    "troop",
                    "spirit"
                ]
            }
        }
    },
    "effects": [],
    "flags": {},
    "img": "systems/pf2e/icons/default-icons/npc.svg",
    "items": [
        {
            "_id": "4U40b1ZuJWTt5Diq",
            "data": {
                "actionCategory": {
                    "value": "interaction"
                },
                "actionType": {
                    "value": "passive"
                },
                "actions": {
                    "value": null
                },
                "description": {
                    "value": "<p>@Localize[PF2E.NPC.Abilities.Glossary.Darkvision]</p>"
                },
                "requirements": {
                    "value": ""
                },
                "rules": [],
                "slug": "darkvision",
                "source": {
                    "value": ""
                },
                "traits": {
                    "custom": "",
                    "rarity": {
                        "value": "common"
                    },
                    "value": []
                },
                "trigger": {
                    "value": ""
                },
                "weapon": {
                    "value": ""
                }
            },
            "effects": [],
            "flags": {
                "core": {
                    "sourceId": "Compendium.pf2e.bestiary-ability-glossary-srd.qCCLZhnp2HhP3Ex6"
                }
            },
            "img": "systems/pf2e/icons/default-icons/action.svg",
            "name": "Darkvision",
            "sort": 100000,
            "type": "action"
        },
        {
            "_id": "ZokrIJg4V0uoS8PR",
            "data": {
                "actionCategory": {
                    "value": "interaction"
                },
                "actionType": {
                    "value": "passive"
                },
                "actions": {
                    "value": null
                },
                "description": {
                    "value": "<p>@Template[type:emanation|distance:60]{60 Feet} @Compendium[pf2e.bestiary-ability-glossary-srd.Aura]{Aura}</p>\n<p>The night parade sweeps up those nearby in a riotous celebration. All creatures in the aura must attempt a <span data-pf2-check=\"will\" data-pf2-traits=\"auditory, aura, emotion, enchantment,mental\" data-pf2-label=\"Riotous Parade DC\" data-pf2-dc=\"39\" data-pf2-show-dc=\"gm\">Will</span> save. The target is then temporarily immune for 10 minutes.</p>\n<hr />\n<p><strong>Critical Success</strong> The target is unafflicted.</p>\n<p><strong>Success</strong> The target laughs and dances. It can't use reactions as long as it stays in the area, and if it attempts to use a concentrate action, it must succeed at a <span data-pf2-check=\"flat\" data-pf2-dc=\"5\" data-pf2-label=\"Riotous Parade DC\" data-pf2-show-dc=\"gm\">flat check</span>; on a failure, the action is lost.</p>\n<p><strong>Failure</strong> As success, except the target is also @Compendium[pf2e.conditionitems.Slowed]{Slowed 1} while in the area.</p>\n<p><strong>Critical Failure</strong> As success, except the target is also slowed 1 while in the area and the flat check DC is 10.</p>"
                },
                "requirements": {
                    "value": ""
                },
                "rules": [],
                "slug": null,
                "source": {
                    "value": ""
                },
                "traits": {
                    "custom": "",
                    "rarity": {
                        "value": "common"
                    },
                    "value": []
                },
                "trigger": {
                    "value": ""
                },
                "weapon": {
                    "value": ""
                }
            },
            "effects": [],
            "flags": {},
            "img": "systems/pf2e/icons/actions/Passive.webp",
            "name": "Riotous Parade",
            "sort": 200000,
            "type": "action"
        },
        {
            "_id": "FrSXbYWiRAxR9Aj6",
            "data": {
                "actionCategory": {
                    "value": "interaction"
                },
                "actionType": {
                    "value": "action"
                },
                "actions": {
                    "value": 1
                },
                "description": {
                    "value": "<p>@Localize[PF2E.NPC.Abilities.Glossary.FormUp]</p>"
                },
                "requirements": {
                    "value": ""
                },
                "rules": [],
                "slug": "form-up",
                "source": {
                    "value": ""
                },
                "traits": {
                    "custom": "",
                    "rarity": {
                        "value": "common"
                    },
                    "value": []
                },
                "trigger": {
                    "value": ""
                },
                "weapon": {
                    "value": ""
                }
            },
            "effects": [],
            "flags": {
                "core": {
                    "sourceId": "Compendium.pf2e.bestiary-ability-glossary-srd.OvqohW9YuahnFaiX"
                }
            },
            "img": "systems/pf2e/icons/actions/OneAction.webp",
            "name": "Form Up",
            "sort": 300000,
            "type": "action"
        },
        {
            "_id": "uOPcA79gYqftC9U4",
            "data": {
                "actionCategory": {
                    "value": "interaction"
                },
                "actionType": {
                    "value": "passive"
                },
                "actions": {
                    "value": null
                },
                "description": {
                    "value": "<p>Whenever a troop Strides, it first Forms Up as a free action to condense into a 20-foot-by-20-foot area (minus any missing squares), then moves up to its Speed. This works just like a Gargantuan creature moving; for instance, if any square enters difficult terrain, the extra movement cost applies to the whole troop.</p>"
                },
                "requirements": {
                    "value": ""
                },
                "rules": [],
                "slug": null,
                "source": {
                    "value": ""
                },
                "traits": {
                    "custom": "",
                    "rarity": {
                        "value": "common"
                    },
                    "value": []
                },
                "trigger": {
                    "value": ""
                },
                "weapon": {
                    "value": ""
                }
            },
            "effects": [],
            "flags": {},
            "img": "systems/pf2e/icons/actions/Passive.webp",
            "name": "Troop Movement",
            "sort": 400000,
            "type": "action"
        },
        {
            "_id": "KE9v9kiSLd2adprB",
            "data": {
                "actionCategory": {
                    "value": "defensive"
                },
                "actionType": {
                    "value": "passive"
                },
                "actions": {
                    "value": null
                },
                "description": {
                    "value": "<p><strong>Thresholds</strong> 300 (12 squares), 150 (8 squares)</p>\n<hr />\n<p>@Localize[PF2E.NPC.Abilities.Glossary.TroopDefenses]</p>"
                },
                "requirements": {
                    "value": ""
                },
                "rules": [],
                "slug": "troop-defenses",
                "source": {
                    "value": ""
                },
                "traits": {
                    "custom": "",
                    "rarity": {
                        "value": "common"
                    },
                    "value": []
                },
                "trigger": {
                    "value": ""
                },
                "weapon": {
                    "value": ""
                }
            },
            "effects": [],
            "flags": {
                "core": {
                    "sourceId": "Compendium.pf2e.bestiary-ability-glossary-srd.RJbI07QSiYp0SF9A"
                }
            },
            "img": "systems/pf2e/icons/actions/Passive.webp",
            "name": "Troop Defenses",
            "sort": 500000,
            "type": "action"
        },
        {
            "_id": "QsfSCrkPy9ChBQ2v",
            "data": {
                "actionCategory": {
                    "value": "defensive"
                },
                "actionType": {
                    "value": "reaction"
                },
                "actions": {
                    "value": null
                },
                "description": {
                    "value": "<p>@Localize[PF2E.NPC.Abilities.Glossary.AttackOfOpportunity]</p>"
                },
                "requirements": {
                    "value": ""
                },
                "rules": [],
                "slug": "attack-of-opportunity",
                "source": {
                    "value": ""
                },
                "traits": {
                    "custom": "",
                    "rarity": {
                        "value": "common"
                    },
                    "value": []
                },
                "trigger": {
                    "value": ""
                },
                "weapon": {
                    "value": ""
                }
            },
            "effects": [],
            "flags": {
                "core": {
                    "sourceId": "Compendium.pf2e.bestiary-ability-glossary-srd.hFtNbo1LKYCoDy2O"
                }
            },
            "img": "systems/pf2e/icons/actions/Reaction.webp",
            "name": "Attack of Opportunity",
            "sort": 600000,
            "type": "action"
        },
        {
            "_id": "l11ZoxPVttpvt5aN",
            "data": {
                "actionCategory": {
                    "value": "offensive"
                },
                "actionType": {
                    "value": "action"
                },
                "actions": {
                    "value": 2
                },
                "description": {
                    "value": "<p>The night parade shouts a series of energetic call-and-responses, dealing [[/r {3d10}[sonic]]]{3d10 sonic damage} and [[/r {4d6}[mental]]]{4d6 mental damage} to all creatures in a 10-foot burst within 20 feet (<span data-pf2-check=\"will\" data-pf2-traits=\"damaging-effect,emotion, mental, sonic\" data-pf2-label=\"Seiya! Soiya! DC\" data-pf2-dc=\"41\" data-pf2-show-dc=\"gm\">basic Will</span> save). If the troop is reduced to 8 or fewer squares, this area decreases to a 5-foot burst.</p>"
                },
                "requirements": {
                    "value": ""
                },
                "rules": [],
                "slug": null,
                "source": {
                    "value": ""
                },
                "traits": {
                    "custom": "",
                    "rarity": {
                        "value": "common"
                    },
                    "value": [
                        "mental",
                        "sonic",
                        "emotion"
                    ]
                },
                "trigger": {
                    "value": ""
                },
                "weapon": {
                    "value": ""
                }
            },
            "effects": [],
            "flags": {},
            "img": "systems/pf2e/icons/actions/TwoActions.webp",
            "name": "Seiya! Soiya!",
            "sort": 700000,
            "type": "action"
        },
        {
            "_id": "ojJLvT8xaDE2ytsM",
            "data": {
                "actionCategory": {
                    "value": "offensive"
                },
                "actionType": {
                    "value": "action"
                },
                "actions": {
                    "value": null
                },
                "description": {
                    "value": "<p><strong>Frequency</strong> once per round;</p>\n<p><strong>Effect</strong> The night parade dances with wild abandon, unintentionally striking nearby creatures. It deals damage to each adjacent creature (<span data-pf2-check=\"reflex\" data-pf2-traits=\"damaging-effect\" data-pf2-label=\"Wasshoi! Wasshoi! DC\" data-pf2-dc=\"41\" data-pf2-show-dc=\"gm\">basic Reflex</span> save), and any creature that fails its save is pushed 10 feet in any direction as the night parade bounces it overhead. The damage depends on the number of actions.</p>\n<p><span class=\"pf2-icon\">1</span> [[/r {1d10+7}[bludgeoning]]]{1d10+7 bludgeoning damage}</p>\n<p><span class=\"pf2-icon\">2</span> [[/r {4d10+14}[bludgeoning]]]{4d10+14 bludgeoning damage}</p>\n<p><span class=\"pf2-icon\">3</span>[[/r {6d10+14}[bludgeoning]]]{6d10+14 bludgeoning damage}</p>"
                },
                "requirements": {
                    "value": ""
                },
                "rules": [],
                "slug": null,
                "source": {
                    "value": ""
                },
                "traits": {
                    "custom": "",
                    "rarity": {
                        "value": "common"
                    },
                    "value": []
                },
                "trigger": {
                    "value": ""
                },
                "weapon": {
                    "value": ""
                }
            },
            "effects": [],
            "flags": {},
            "img": "systems/pf2e/icons/actions/OneAction.webp",
            "name": "Wasshoi! Wasshoi!",
            "sort": 800000,
            "type": "action"
        },
        {
            "_id": "Ho9VnJjZGQ6T5cVD",
            "data": {
                "description": {
                    "value": ""
                },
                "mod": {
                    "value": 34
                },
                "proficient": {
                    "value": 0
                },
                "rules": [],
                "slug": null,
                "source": {
                    "value": ""
                },
                "traits": {
                    "custom": "",
                    "rarity": {
                        "value": "common"
                    },
                    "value": []
                }
            },
            "effects": [],
            "flags": {},
            "img": "systems/pf2e/icons/default-icons/lore.svg",
            "name": "Acrobatics",
            "sort": 900000,
            "type": "lore"
        },
        {
            "_id": "HEe3os4KUoAns9zR",
            "data": {
                "description": {
                    "value": ""
                },
                "mod": {
                    "value": 33
                },
                "proficient": {
                    "value": 0
                },
                "rules": [],
                "slug": null,
                "source": {
                    "value": ""
                },
                "traits": {
                    "custom": "",
                    "rarity": {
                        "value": "common"
                    },
                    "value": []
                }
            },
            "effects": [],
            "flags": {},
            "img": "systems/pf2e/icons/default-icons/lore.svg",
            "name": "Athletics",
            "sort": 1000000,
            "type": "lore"
        },
        {
            "_id": "62YKsb9aK8YztVoR",
            "data": {
                "description": {
                    "value": ""
                },
                "mod": {
                    "value": 32
                },
                "proficient": {
                    "value": 0
                },
                "rules": [],
                "slug": null,
                "source": {
                    "value": ""
                },
                "traits": {
                    "custom": "",
                    "rarity": {
                        "value": "common"
                    },
                    "value": []
                }
            },
            "effects": [],
            "flags": {},
            "img": "systems/pf2e/icons/default-icons/lore.svg",
            "name": "Dancing Lore",
            "sort": 1100000,
            "type": "lore"
        },
        {
            "_id": "azBapsamGWx7tDmS",
            "data": {
                "description": {
                    "value": ""
                },
                "mod": {
                    "value": 37
                },
                "proficient": {
                    "value": 0
                },
                "rules": [],
                "slug": null,
                "source": {
                    "value": ""
                },
                "traits": {
                    "custom": "",
                    "rarity": {
                        "value": "common"
                    },
                    "value": []
                }
            },
            "effects": [],
            "flags": {},
            "img": "systems/pf2e/icons/default-icons/lore.svg",
            "name": "Deception",
            "sort": 1200000,
            "type": "lore"
        },
        {
            "_id": "HzKODrEeAmXqODGl",
            "data": {
                "description": {
                    "value": ""
                },
                "mod": {
                    "value": 37
                },
                "proficient": {
                    "value": 0
                },
                "rules": [],
                "slug": null,
                "source": {
                    "value": ""
                },
                "traits": {
                    "custom": "",
                    "rarity": {
                        "value": "common"
                    },
                    "value": []
                }
            },
            "effects": [],
            "flags": {},
            "img": "systems/pf2e/icons/default-icons/lore.svg",
            "name": "Performance",
            "sort": 1300000,
            "type": "lore"
        },
        {
            "_id": "Bw6GcIIuOeErClWL",
            "data": {
                "description": {
                    "value": ""
                },
                "mod": {
                    "value": 32
                },
                "proficient": {
                    "value": 0
                },
                "rules": [],
                "slug": null,
                "source": {
                    "value": ""
                },
                "traits": {
                    "custom": "",
                    "rarity": {
                        "value": "common"
                    },
                    "value": []
                }
            },
            "effects": [],
            "flags": {},
            "img": "systems/pf2e/icons/default-icons/lore.svg",
            "name": "Society",
            "sort": 1400000,
            "type": "lore"
        }
    ],
    "name": "Dancing Night Parade",
    "token": {
        "disposition": -1,
        "height": 4,
        "img": "systems/pf2e/icons/default-icons/npc.svg",
        "name": "Dancing Night Parade",
        "width": 4
    },
    "type": "npc"
}
