{
    "_id": "mdOASi6f7CTVH1ys",
    "data": {
        "attributes": {
            "ac": {
                "value": 34
            },
            "hardness": 1,
            "hasHealth": true,
            "hp": {
                "details": "",
                "max": 4,
                "temp": 0,
                "value": 4
            },
            "stealth": {
                "details": "<p>+37 (master) to notice it isn't a regular mirror</p>",
                "value": 0
            }
        },
        "creatureType": "",
        "details": {
            "description": "<p>A magic mirror replaces characters with evil mirror duplicates from another dimension.</p>",
            "disable": "<p><span data-pf2-check=\"thievery\" data-pf2-label=\"Retrieve a Creature DC\" data-pf2-dc=\"40\" data-pf2-show-dc=\"gm\">Thievery</span> (legendary) to retrieve a creature from the other dimension within 10 minutes of the switch (possible only if their mirror duplicate is dead), <span data-pf2-check=\"thievery\" data-pf2-label=\"Disable the Mirror DC\" data-pf2-dc=\"45\" data-pf2-show-dc=\"gm\">Thievery</span> (master) to permanently disable the mirror once all mirror duplicates are dead, or <em>@Compendium[pf2e.spells-srd.Dispel Magic]{Dispel Magic}</em> (8th level; counteract DC 37) to counteract the mirror for 1 minute and prevent additional replacements during that time</p>\n<p>the mirror can't be damaged while any mirror duplicate is alive</p>",
            "isComplex": true,
            "level": {
                "value": 19
            },
            "reset": "<p>The mirror is always ready to absorb creatures into the other dimension. Ten minutes after a creature is sucked into the mirror, if an ally doesn't rescue the creature with Thievery, it reaches the other dimension, where it might be captured or killed. In the mirror dimension, it counts as a mirror duplicate, so the denizens of the other dimension can't destroy the mirror on their side while the absorbed creature is there. These dimensions are alternate realities, not planes, so even rituals like plane shift can't reach them.</p>",
            "routine": "<p>(1 action) The mirror absorbs another reflected creature into the mirror and replaces it with a mirror duplicate. Mirror duplicates attack on their own initiative, using the same statistics as the original creature, but with an evil alignment (changing only abilities that shift with the alignment change). A mirror duplicate can spend 3 actions in contact with the mirror to return to its original dimension and release the creature it duplicated, but most mirror duplicates prefer not to.</p>"
        },
        "saves": {
            "fortitude": {
                "saveDetail": "",
                "value": 25
            },
            "reflex": {
                "saveDetail": "",
                "value": 20
            },
            "will": {
                "saveDetail": "",
                "value": 0
            }
        },
        "source": {
            "value": "Pathfinder #168: King of the Mountain"
        },
        "statusEffects": [],
        "traits": {
            "ci": [],
            "di": {
                "custom": "",
                "selected": {},
                "value": []
            },
            "dr": [],
            "dv": [],
            "rarity": {
                "value": "common"
            },
            "size": {
                "value": "med"
            },
            "traits": {
                "custom": "",
                "value": [
                    "magical",
                    "mechanical",
                    "trap"
                ]
            }
        }
    },
    "effects": [],
    "flags": {},
    "img": "systems/pf2e/icons/default-icons/hazard.svg",
    "items": [
        {
            "_id": "ckCapiLVJcQCOzmH",
            "data": {
                "actionCategory": {
                    "value": "offensive"
                },
                "actionType": {
                    "value": "reaction"
                },
                "actions": {
                    "value": null
                },
                "description": {
                    "value": "<p data-visibility=\"gm\"><strong>Trigger</strong> A non-evil creature is reflected in the mirror;</p>\n<p><strong>Effect</strong> The mirror absorbs the creature into the mirror, replacing it with an evil mirror duplicate (<span data-pf2-check=\"reflex\" data-pf2-traits=\"arcane, conjuration, teleportation\" data-pf2-label=\"Reflection of Evil DC\" data-pf2-dc=\"41\" data-pf2-show-dc=\"gm\">Reflex</span> to avoid being absorbed into the mirror), and rolls initiative.</p>"
                },
                "requirements": {
                    "value": ""
                },
                "rules": [],
                "slug": null,
                "source": {
                    "value": ""
                },
                "traits": {
                    "custom": "",
                    "rarity": {
                        "value": "common"
                    },
                    "value": [
                        "arcane",
                        "conjuration",
                        "teleportation"
                    ]
                },
                "trigger": {
                    "value": ""
                },
                "weapon": {
                    "value": ""
                }
            },
            "effects": [],
            "flags": {},
            "img": "systems/pf2e/icons/actions/Reaction.webp",
            "name": "Reflection of Evil",
            "sort": 0,
            "type": "action"
        }
    ],
    "name": "Dimensional Darkside Mirror",
    "token": {
        "disposition": 0,
        "height": 1,
        "img": "systems/pf2e/icons/default-icons/hazard.svg",
        "name": "Dimensional Darkside Mirror",
        "width": 1
    },
    "type": "hazard"
}
