{
    "_id": "A0C86V3MUECpX5jd",
    "data": {
        "description": {
            "value": "<p>It gains a swim Speed of 25 feet (or Speed of 25 feet if it already has a swim Speed).</p>"
        },
        "duration": {
            "expiry": "turn-start",
            "sustained": false,
            "unit": "unlimited",
            "value": -1
        },
        "level": {
            "value": 1
        },
        "rules": [
            {
                "key": "BaseSpeed",
                "selector": "land",
                "value": 25
            },
            {
                "key": "BaseSpeed",
                "selector": "swim",
                "value": 25
            }
        ],
        "source": {
            "value": ""
        },
        "start": {
            "initiative": null,
            "value": 0
        },
        "target": null,
        "tokenIcon": {
            "show": false
        },
        "traits": {
            "custom": "",
            "rarity": {
                "value": "common"
            },
            "value": []
        }
    },
    "effects": [],
    "flags": {},
    "img": "systems/pf2e/icons/actions/Passive.webp",
    "name": "Amphibious",
    "type": "effect"
}
