{
    "_id": "1fmTXGRPa8fLXZKL",
    "content": "<h1>Balumbdar (The World-Shaker) [N]</h1>\n<p>Balumbdar, or He Who Is Massive, is the god of all huge things in the world that tower over smaller things. Creatures of great size, such as elephants and dinosaurs, are sacred to him, as are natural features that dominate the landscape like mountains and massive trees. Balumbdar is also a god of strength, but of might born of great size rather than training or skill. Balumbdar is considered brutish and dim-witted by most other gods, but the fact that he towers over them in any interaction means he always commands respect. When he bothers to manifest at all, it is as a startlingly large man with slabs of muscle and equally thick rolls of fat. He sometimes instead appears as a city-sized animal or as imposing clouds, heavy with rain and low to the ground.</p>\n<p>Balumbdar's worshippers see their god's might in storms that shred a forest but leave the tallest trees standing, or avalanches that roll across buildings yet leave the mountain untouched. This, they know, is the power of size: to endure when the rest of the world is weak and small. They seek to emulate their god by growing large, either by developing their muscles or becoming immensely fat.</p>\n<p>Balumbdar himself is uncaring about how great size and strength is used, but his followers generally divide themselves into two schools of thought. Those who feel that it is incumbent upon the large to tread upon the small are usually evil. Those who feel that size imparts an obligation to protect the small are usually good. Druids often revere Balumbdar because of his relationship with the natural world, and they adopt the care of animals much larger than they are-or at times, animals that are much smaller, to demonstrate Balumbdar's stalwart guardianship of smaller creatures.</p>\n<p>The Elephant People revere Balumbdar, but not by name; they know that some ancient divine sponsor sent the elephants to the world to guide others. This patron is Balumbdar, who doesn't care that this nameless people have, in turn, no name for him; Balumbdar speaks to them through the elephants that serve his will.</p>\n<p><strong>Edicts</strong> grow as large as you can, shelter those smaller and weaker than you, tend large animals and megafauna</p>\n<p><strong>Anathema</strong> accidentally injure others with your size, topple a massive natural monument, use magic to assume a form smaller than you are</p>\n<p><strong>Follower Alignments</strong> NG, N, NE</p>\n<h2>Devotee Benefits</h2>\n<div><strong>Divine Font</strong> heal</div>\n<div><strong>Divine Ability</strong> Strength or Constitution</div>\n<div><strong>Divine Skill</strong> Athletics</div>\n<div><strong>Favored Weapon</strong> @Compendium[pf2e.equipment-srd.Greatclub]{Greatclub}</div>\n<div><strong>Domains</strong> might, nature, perfection, protection</div>\n<div><strong>Cleric Spells</strong> 1st: <em>@Compendium[pf2e.spells-srd.Ant Haul]{Ant Haul}</em>, 2nd:<em>@Compendium[pf2e.spells-srd.Enlarge]{Enlarge}</em>, 4th: <em>@Compendium[pf2e.spells-srd.Dinosaur Form]{Dinosaur Form}</em></div>\n<h2>Avatar</h2>\n<p>When casting the <em>@Compendium[pf2e.spells-srd.Avatar]{Avatar}</em> spell, a worshipper of Balumbdar gains the following additional abilities.</p>\n<p><strong>Balumbdar </strong>Speed 70 feet, climb speed 50 feet, immune to @Compendium[pf2e.conditionitems.Immobilized]{Immobilized};</p>\n<p>Melee <span class=\"pf2-icon\">1</span> slam (reach 15 feet), Damage [[/r {6d12+4}[bludgeoning]]]{6d12+4 bludgeoning damage};</p>\n<p>Ranged <span class=\"pf2-icon\">1</span> overbearing pressure (range 120 feet), Damage [[/r {6d6+3}[bludgeoning]]]{6d6+3 bludgeoning damage}</p>",
    "flags": {},
    "name": "Balumbdar",
    "permission": {
        "default": 0
    }
}
