{
    "_id": "AIcDyoff265z9285",
    "content": "<h1>Kofusachi (The Laughing God) [CG]</h1><p><strong>Edicts</strong> Support local businesses, bring prosperity to your community, sample life's pleasures</p><p><strong>Anathema</strong> Become tied to one location, judge another based on sexual desires or gender roles</p><p><strong>Follower Alignments</strong> NG, CG</span></p><p></span></p><h2>Devotee Benefits</h2><div><div><strong>Divine Ability</strong> Dexterity or Constitution</div><div><strong>Divine Font</strong> heal</div><div><strong>Divine Skill</strong> Performance</div><div><strong>Favored Weapon</strong> staff</div><div><strong>Domains</strong> luck, passion, travel, wealth</div><div><strong>Cleric Spells</strong> 1st: soothe, 2nd: hideous laughter, 8th: uncontrollable dance</div></div>",
    "flags": {},
    "name": "Kofusachi",
    "permission": {
        "default": 0
    }
}
