{
    "_id": "WO9UsCY41oTtC2G0",
    "content": "<h1>Pillars of Knowledge [N]</h1><p><strong>Edicts</strong> Seek new knowledge, use your knowledge and skill to improve the world around you, protect knowledge from becoming lost</p><p><strong>Anathema</strong> Choose to use old knowledge or tools after they have been improved upon, destroy knowledge, refuse to answer a query for which you know the answer</p><p><strong>Areas of Concern</strong> Learning, innovation, safeguarding knowledge</p><p><strong>Follower Alignments</strong> LN, N, CN</p><p><strong>Pantheon Members</strong>&nbsp;@Compendium[pf2e.deities.Brigh]{Brigh}, @Compendium[pf2e.deities.Casandalee]{Casandalee}, @Compendium[pf2e.deities.Irori]{Irori}, @Compendium[pf2e.deities.Shyka]{Shyka}, @Compendium[pf2e.deities.Ydajisk]{Ydajisk}<u></u></span></p><h2>Devotee Benefits</h2><p><strong>Divine Ability </strong>Intelligence or Wisdom</p><p><strong>Divine Font</strong> harm or heal</p><p><strong>Divine Skill</strong> Crafting</p><p><strong>Favored Weapon</strong> light hammer<u></u></p><p><strong>Domains</strong> creation, knowledge, secrecy, truth</p><p><strong>Alternate Domains&nbsp;</strong>glyph, perfection, time</p><p><strong>Cleric Spells</strong> 1st: <em>message rune</em><u></u>, 3rd: <em>hypercognition</em>, 9th: <strong>retrocognition</strong><u></u></p>",
    "flags": {},
    "name": "Pillars of Knowledge",
    "permission": {
        "default": 0
    }
}
