{
    "_id": "Ze2hoTyOQHbaQ6jD",
    "content": "<p><strong>Deities </strong>@Compendium[pf2e.deities.Apollyon]{Apollyon}, @Compendium[pf2e.deities.Baalzebul]{Baalzebul},&nbsp; </span><span id=\"ctl00_MainContent_DetailedOutput\">@Compendium[pf2e.deities.Ghlaunder]{Ghlaunder}, @Compendium[pf2e.deities.Gozreh]{Gozreh},&nbsp; </span><span id=\"ctl00_MainContent_DetailedOutput\">@Compendium[pf2e.deities.Hei Feng]{Hei Feng},&nbsp; </span><span id=\"ctl00_MainContent_DetailedOutput\">@Compendium[pf2e.deities.Horus]{Horus},&nbsp; </span><span id=\"ctl00_MainContent_DetailedOutput\">@Compendium[pf2e.deities.Hshurha]{Hshurha},&nbsp; </span><span id=\"ctl00_MainContent_DetailedOutput\">@Compendium[pf2e.deities.Pazuzu]{Pazuzu},&nbsp; </span><span id=\"ctl00_MainContent_DetailedOutput\">@Compendium[pf2e.deities.Ragdya]{Ragdya},&nbsp; </span><span id=\"ctl00_MainContent_DetailedOutput\">@Compendium[pf2e.deities.Ranginori]{Ranginori},&nbsp; </span><span id=\"ctl00_MainContent_DetailedOutput\">@Compendium[pf2e.deities.Rovagug]{Rovagug},&nbsp; </span><span id=\"ctl00_MainContent_DetailedOutput\">@Compendium[pf2e.deities.Sturovenen]{Sturovenen}, </span><span id=\"ctl00_MainContent_DetailedOutput\">@Compendium[pf2e.deities.Ylimancha]{Ylimancha}</span></p><p><span id=\"ctl00_MainContent_DetailedOutput\"><strong>Domain Spell</strong> @Compendium[pf2e.spells-srd.Pushing Gust]{Pushing Gust}; <strong>Advanced Domain Spell</strong> @Compendium[pf2e.spells-srd.Disperse into Air]{Disperse into Air}</p><p><span id=\"ctl00_MainContent_DetailedOutput\">You can control winds and the weather.</span></p><p></p>",
    "flags": {},
    "name": "Air Domain",
    "permission": {
        "default": 0
    }
}
