{
    "_id": "Wx12NUjqTOjFrEoW",
    "data": {
        "actionCategory": {
            "value": ""
        },
        "actionType": {
            "value": "passive"
        },
        "actions": {
            "value": null
        },
        "description": {
            "value": "<p>Your taunts and threats earn your foes ire. When you successfully @Compendium[pf2e.actionspf2e.Demoralize]{Demoralize} a creature, its @Compendium[pf2e.conditionitems.Frightened]{Frightened} condition can't decrease to less than 1 at the end of its turn until it either uses a hostile action against you or can no longer observe or sense you for at least 1 round.</p>"
        },
        "featType": {
            "value": "class"
        },
        "level": {
            "value": 2
        },
        "prerequisites": {
            "value": []
        },
        "rules": [],
        "source": {
            "value": "Pathfinder Advanced Player's Guide"
        },
        "traits": {
            "custom": "",
            "rarity": {
                "value": "common"
            },
            "value": [
                "swashbuckler"
            ]
        }
    },
    "effects": [],
    "flags": {},
    "img": "systems/pf2e/icons/features/feats/feats.webp",
    "name": "Antagonize",
    "type": "feat"
}
