{
    "_id": "BTQj2N5erpJDWNFA",
    "data": {
        "actionCategory": {
            "value": ""
        },
        "actionType": {
            "value": "passive"
        },
        "actions": {
            "value": null
        },
        "description": {
            "value": "<p>You've attuned your core to allow you to phase in and out of the Astral Plane, allowing you to teleport periodically. You can cast <em>@Compendium[pf2e.spells-srd.Dimension Door]{Dimension Door}</em> once per hour as a 4th-level innate arcane spell.</p>\n<p><strong>Enhancement</strong> Your attunement allows you to teleport in a series of quick jumps rather than in one big leap. You can expend your hourly use of dimension door as a free action when you begin your turn. If you do, your Strides are augmented until the end of your turn, allowing you to instantly teleport to any point you could reach with your Speed instead of traversing normally to the location. While augmented, your Strides gain the conjuration and teleportation traits. Your augmented Strides don't trigger reactions that can be triggered by move actions or upon leaving or entering a square, unless those reactions trigger on teleportation.</p>"
        },
        "featType": {
            "value": "ancestry"
        },
        "level": {
            "value": 13
        },
        "location": "",
        "prerequisites": {
            "value": []
        },
        "rules": [],
        "source": {
            "value": ""
        },
        "traits": {
            "custom": "",
            "rarity": {
                "value": "common"
            },
            "value": [
                "automaton"
            ]
        }
    },
    "effects": [],
    "flags": {},
    "img": "systems/pf2e/icons/default-icons/feats.webp",
    "name": "Astral Blink",
    "type": "feat"
}
