{
    "_id": "eBdajOzs8kiJDic2",
    "data": {
        "actionCategory": {
            "value": ""
        },
        "actionType": {
            "value": "passive"
        },
        "actions": {
            "value": null
        },
        "description": {
            "value": "<p>You are touched by a deity and gifted with the ability to alleviate the suffering of others.</p>\n<p>You gain the <em>@Compendium[pf2e.spells-srd.Lay on Hands]{Lay on Hands}</em><em> </em>devotion spell. It costs 1 Focus Point to cast a focus spell. This feat grants a focus pool of 1 Focus Point that you can recover using the @Compendium[pf2e.actionspf2e.Refocus]{Refocus} activity.</p>\n<p>You can Refocus by meditating, whether you reflect on the deity granting the blessing or not, allowing your blessing to refill your focus pool.</p>\n<p>Your devotion spells from the blessed one archetype are divine spells.</p>\n<p><strong>Special</strong> You can't select another dedication feat until you have gained two other feats from the blessed one archetype.</p>"
        },
        "featType": {
            "value": "archetype"
        },
        "level": {
            "value": 2
        },
        "location": "",
        "prerequisites": {
            "value": []
        },
        "rules": [
            {
                "key": "ActiveEffectLike",
                "mode": "add",
                "path": "data.resources.focus.max",
                "value": 1
            }
        ],
        "source": {
            "value": "Pathfinder Advanced Player's Guide"
        },
        "traits": {
            "custom": "",
            "rarity": {
                "value": "common"
            },
            "value": [
                "archetype",
                "dedication"
            ]
        }
    },
    "effects": [],
    "flags": {},
    "img": "systems/pf2e/icons/features/feats/feats.webp",
    "name": "Blessed One Dedication",
    "type": "feat"
}
