{
    "_id": "uc6JcNrI31wzSC2h",
    "data": {
        "actionCategory": {
            "value": ""
        },
        "actionType": {
            "value": "passive"
        },
        "actions": {
            "value": null
        },
        "description": {
            "value": "<p><strong>Requirements</strong> You're wielding a firearm with an attached bayonet or reinforced stock.</p>\n<hr />\n<p>The fiery blaze of your weapons combined with your unorthodox technique leaves your opponents with little opportunity to capitalize on any gaps in your defenses, or properly defend themselves against your onslaught. While in Bullet Dancer Stance, when you successfully Strike an opponent with a bayonet or reinforced stock attached to your firearm, the next ranged Strike you make against that opponent doesn't trigger reactions that would trigger on a ranged attack, such as Attack of Opportunity. While in Bullet Dancer Stance, when you make a successful ranged Strike against an opponent within your melee reach using a firearm, the next reinforced stock or bayonet attack attached to that firearm deals an additional [[/r {1}[fire] damage]]{1 fire} per weapon damage die. The benefit on your next Strike from either use of Bullet Dancer Burn is lost if not used by the end of your next turn.</p>"
        },
        "featType": {
            "value": "archetype"
        },
        "level": {
            "value": 6
        },
        "location": "",
        "prerequisites": {
            "value": [
                {
                    "value": "Bullet Dancer Dedication"
                }
            ]
        },
        "rules": [],
        "source": {
            "value": ""
        },
        "traits": {
            "custom": "",
            "rarity": {
                "value": "common"
            },
            "value": [
                "archetype"
            ]
        }
    },
    "effects": [],
    "flags": {},
    "img": "systems/pf2e/icons/default-icons/feats.webp",
    "name": "Bullet Dancer Burn",
    "type": "feat"
}
