{
    "_id": "5Q69PI8jdQVkb1ZT",
    "data": {
        "actionCategory": {
            "value": ""
        },
        "actionType": {
            "value": "passive"
        },
        "actions": {
            "value": null
        },
        "description": {
            "value": "<p>You gain a young animal companion that serves as your mount. You can choose from animal companions with the mount special ability, as well as any additional options from your pledge, as determined by your GM. You must choose an animal companion that's at least one size larger than you, but if the animal usually starts as Small, you can begin with a Medium version of that animal (changing no statistics other than its size).</p>\n<p><strong>Special</strong> You cannot select another dedication feat until you have gained two other feats from the cavalier archetype. This restriction is waived if you have pledged to the organization associated with the other dedication feat. For example, if you are pledged to a Hellknight order, you could take Hellknight dedication feats without needing to gain other feats from the cavalier archetype first.</p>"
        },
        "featType": {
            "value": "archetype"
        },
        "level": {
            "value": 2
        },
        "prerequisites": {
            "value": [
                {
                    "value": "trained in Nature or Society"
                }
            ]
        },
        "rules": [],
        "source": {
            "value": "Pathfinder Advanced Player's Guide"
        },
        "traits": {
            "custom": "",
            "rarity": {
                "value": "common"
            },
            "value": [
                "archetype",
                "dedication"
            ]
        }
    },
    "effects": [],
    "flags": {},
    "img": "systems/pf2e/icons/features/feats/feats.webp",
    "name": "Cavalier Dedication",
    "type": "feat"
}
