{
    "_id": "07YYaQBknzDTcbFz",
    "data": {
        "actionCategory": {
            "value": ""
        },
        "actionType": {
            "value": "passive"
        },
        "actions": {
            "value": null
        },
        "description": {
            "value": "<p>When you cast <em>@Compendium[pf2e.spells-srd.Cloudkill]{Cloudkill}</em>, modify its duration to be sustained up to 1 minute, and modify its standard effect to include the following: The cloud doesn't move away from you each round. Once per round when you Sustain the Spell, you can move the cloud 10 feet in the direction of your choice.</p>"
        },
        "featType": {
            "value": "archetype"
        },
        "level": {
            "value": 12
        },
        "location": "",
        "prerequisites": {
            "value": [
                {
                    "value": "Spell Trickster Dedication"
                },
                {
                    "value": "ability to cast cloudkill"
                }
            ]
        },
        "rules": [],
        "source": {
            "value": "Pathfinder Lost Omens: The Grand Bazaar"
        },
        "traits": {
            "custom": "",
            "rarity": {
                "value": "common"
            },
            "value": [
                "archetype"
            ]
        }
    },
    "effects": [],
    "flags": {},
    "img": "systems/pf2e/icons/default-icons/feats.webp",
    "name": "Directed Poison",
    "type": "feat"
}
