{
    "_id": "FGrIFDobGRFBPOuM",
    "data": {
        "actionCategory": {
            "value": ""
        },
        "actionType": {
            "value": "passive"
        },
        "actions": {
            "value": null
        },
        "description": {
            "value": "<p>You can use your knowledge of engineering and metalwork to temporarily strengthen thick objects and structures.</p>\n<p>By spending 1 hour working on an item, you can give it a +1 circumstance bonus to its Hardness for 24 hours. If you're a master in Crafting, the bonus is +2, and if you're legendary, the bonus is +3.</p>\n<p>You can reinforce a portion of a structure, though 1 hour usually reinforces only a door, a few windows, or another section that fits within a 10-foot cube.</p>"
        },
        "featType": {
            "value": "ancestry"
        },
        "level": {
            "value": 5
        },
        "prerequisites": {
            "value": [
                {
                    "value": "expert in Crafting"
                }
            ]
        },
        "rules": [],
        "source": {
            "value": "Pathfinder Advanced Player's Guide"
        },
        "traits": {
            "custom": "",
            "rarity": {
                "value": "common"
            },
            "value": [
                "dwarf"
            ]
        }
    },
    "effects": [],
    "flags": {},
    "img": "systems/pf2e/icons/features/feats/feats.webp",
    "name": "Dwarven Reinforcement",
    "type": "feat"
}
