{
    "_id": "OtV7esAwza1U6Kwr",
    "data": {
        "actionCategory": {
            "value": ""
        },
        "actionType": {
            "value": "action"
        },
        "actions": {
            "value": 1
        },
        "description": {
            "value": "<p><strong>Frequency</strong> once per day</p>\n<p><strong>Access</strong> You are a member of the Arclords of Nex.</p>\n<hr />\n<p>You open an incandescent third eye upon your forehead.</p>\n<p>The eye can remain open for 1 minute, and you can close it before then with a single action with the concentrate trait. It can remain open for 2 minutes if you're a master in Arcana, or 5 minutes if you're legendary.</p>\n<p>While the eye is open, you gain the following benefits:</p>\n<ul>\n<li>you gain the effects of the detect magic arcane innate spell from your Arcane Sense at the start of each of your turns without needing to cast the spell;</li>\n<li>you gain darkvision;</li>\n<li>you gain a +2 status bonus to Perception checks to Seek undetected and hidden creatures and to your Perception DC against Hide and Sneak.</li>\n</ul>\n<p>@Compendium[pf2e.feat-effects.Effect: Eye of the Arclords]{Effect: Eye of the Arclords}</p>\n<p>After your third eye closes, you are dazzled for an amount of time equal to how long you had it open.</p>"
        },
        "featType": {
            "value": "skill"
        },
        "level": {
            "value": 2
        },
        "location": "",
        "prerequisites": {
            "value": [
                {
                    "value": "expert in Arcana"
                },
                {
                    "value": "Arcane Sense"
                }
            ]
        },
        "rules": [],
        "source": {
            "value": "Pathfinder Lost Omens: World Guide"
        },
        "traits": {
            "custom": "",
            "rarity": {
                "value": "uncommon"
            },
            "value": [
                "general",
                "skill"
            ]
        }
    },
    "effects": [],
    "flags": {},
    "img": "systems/pf2e/icons/features/feats/feats.webp",
    "name": "Eye of the Arclords",
    "type": "feat"
}
