{
    "_id": "MVbNnjqQOK9d8Ki3",
    "data": {
        "actionCategory": {
            "value": ""
        },
        "actionType": {
            "value": "passive"
        },
        "actions": {
            "value": null
        },
        "description": {
            "value": "<p>You've learned the secrets of making fire and sound bloom using black powder, metals, and paper. You most likely came by this knowledge through formal training with a fireworks house in Tian Xia or a fireworks company from Vudra, though perhaps you mastered fireworks completely by yourself after finding a secret stash in an old shipwreck.</p>\n<p>You become trained in Fireworks Lore or become an expert if you were already trained in it. You gain the @Compendium[pf2e.feats-srd.Alchemical Crafting]{Alchemical Crafting} feat, a pool of @Compendium[pf2e.classfeatures.Infused Reagents]{Infused Reagents} equal to your level, and @Compendium[pf2e.classfeatures.Advanced Alchemy]{Advanced Alchemy} (allowing you to make alchemical items during your daily preparations without the normal cost or time expenditure). You can use your infused reagents only to make fireworks,@Compendium[pf2e.actionspf2e.Launch Fireworks Display]{Launch Fireworks Display}, and use other feats from this archetype. Your advanced alchemy level is 1. If you gain infused reagents from more than one source, you use the highest number of reagents to determine your pool rather than adding them together.</p>\n<p>You can also create special fireworks displays using your infused reagents, designed to create distinctive effects you can use to make onlookers marvel and even to gain an advantage in combat. You gain the Launch Fireworks Display action and learn some basic displays, and you can learn additional, more complex displays through other firework technician feats. The DC for any display is equal to your class DC or spell DC, whichever is higher.</p>\n<p><strong>Special</strong> You can't select another dedication feat until you've gained two other feats from the fireworks technician archetype.</p>"
        },
        "featType": {
            "value": "archetype"
        },
        "level": {
            "value": 2
        },
        "location": "",
        "prerequisites": {
            "value": [
                {
                    "value": "trained in Crafting"
                }
            ]
        },
        "rules": [
            {
                "isAlchemical": true,
                "isDailyPrep": true,
                "key": "CraftingEntry",
                "maxItemLevel": 1,
                "name": "Firework Technician",
                "requiredTraits": [
                    [
                        "alchemical"
                    ]
                ],
                "selector": "fireworkTechnician"
            },
            {
                "key": "ActiveEffectLike",
                "mode": "upgrade",
                "path": "data.resources.crafting.infusedReagents.max",
                "value": "@details.level.value"
            }
        ],
        "source": {
            "value": ""
        },
        "traits": {
            "custom": "",
            "rarity": {
                "value": "uncommon"
            },
            "value": [
                "archetype",
                "dedication"
            ]
        }
    },
    "effects": [],
    "flags": {},
    "img": "systems/pf2e/icons/default-icons/feats.webp",
    "name": "Firework Technician Dedication",
    "type": "feat"
}
