{
    "_id": "hXYnwpi95E77qfAu",
    "data": {
        "actionCategory": {
            "value": ""
        },
        "actionType": {
            "value": "passive"
        },
        "actions": {
            "value": null
        },
        "description": {
            "value": "<p>When you trick a foe, you can goad them into overextending their next attack.</p>\n<p>On a @Compendium[pf2e.actionspf2e.Feint]{Feint}, you can use the following success and critical success effects instead of any other effects you would gain when you Feint; if you do, other abilities that adjust the normal effects of your Feint no longer apply. You can choose whether to use the Goading Feint benefits or the normal benefits each time you Feint a given foe.</p>\n<hr />\n<p><strong>Critical Success</strong> The target takes a -2 circumstance penalty to</p>\n<p>all attack rolls against you before the end of its next turn.</p>\n<p><strong>Success</strong> The target takes a -2 circumstance penalty to its next</p>\n<p>attack roll against you before the end of its next turn.</p>"
        },
        "featType": {
            "value": "class"
        },
        "level": {
            "value": 1
        },
        "prerequisites": {
            "value": [
                {
                    "value": "trained in Deception"
                }
            ]
        },
        "rules": [],
        "source": {
            "value": "Pathfinder Advanced Player's Guide"
        },
        "traits": {
            "custom": "",
            "rarity": {
                "value": "common"
            },
            "value": [
                "swashbuckler"
            ]
        }
    },
    "effects": [],
    "flags": {},
    "img": "systems/pf2e/icons/features/feats/feats.webp",
    "name": "Goading Feint",
    "type": "feat"
}
