{
    "_id": "DqD7htz8Sd1dh3BT",
    "data": {
        "actionCategory": {
            "value": ""
        },
        "actionType": {
            "value": "action"
        },
        "actions": {
            "value": 1
        },
        "description": {
            "value": "<p>You lower yourself to the ground and take an imposing, knuckle - walking stance.</p>\n<p>While in this stance, the only Strikes you can make are gorilla slam unarmed attacks. These deal 1d8 bludgeoning damage; are in the brawling group; and have the backswing, forceful, grapple, nonlethal, and unarmed traits.</p>\n<p>While you are in Gorilla Stance, you gain a +2 circumstance bonus to Athletics checks to @Compendium[pf2e.actionspf2e.Climb]{Climb}, and if you roll a success on an Athletics check to Climb, you get a critical success instead.</p>\n<p>@Compendium[pf2e.feat-effects.Stance: Gorilla Stance]{Stance: Gorilla Stance}</p>"
        },
        "featType": {
            "value": "class"
        },
        "level": {
            "value": 1
        },
        "location": "",
        "prerequisites": {
            "value": []
        },
        "rules": [],
        "source": {
            "value": "Pathfinder Advanced Player's Guide"
        },
        "traits": {
            "custom": "",
            "rarity": {
                "value": "common"
            },
            "value": [
                "monk",
                "stance"
            ]
        }
    },
    "effects": [],
    "flags": {},
    "img": "systems/pf2e/icons/features/feats/feats.webp",
    "name": "Gorilla Stance",
    "type": "feat"
}
