{
    "_id": "hRJV7byfPUHx1b9P",
    "data": {
        "actionCategory": {
            "value": ""
        },
        "actionType": {
            "value": "passive"
        },
        "actions": {
            "value": null
        },
        "description": {
            "value": "<p>You gain more powerful spell runes. You gain a spell rune corresponding to a 4th-level arcane spell. At 12th level, you gain a spell rune corresponding to a 5th-level arcane spell, and at 14th level, you gain a spell rune corresponding to a 6th-level arcane spell.</p>"
        },
        "featType": {
            "value": "archetype"
        },
        "level": {
            "value": 10
        },
        "prerequisites": {
            "value": [
                {
                    "value": "Spell Runes"
                }
            ]
        },
        "rules": [],
        "source": {
            "value": "Pathfinder Lost Omens: World Guide"
        },
        "traits": {
            "custom": "",
            "rarity": {
                "value": "common"
            },
            "value": [
                "archetype"
            ]
        }
    },
    "effects": [],
    "flags": {},
    "img": "systems/pf2e/icons/features/feats/feats.webp",
    "name": "Greater Spell Runes",
    "type": "feat"
}
