{
    "_id": "doD3jZylVXZ0oHWO",
    "data": {
        "actionCategory": {
            "value": ""
        },
        "actionType": {
            "value": "passive"
        },
        "actions": {
            "value": null
        },
        "description": {
            "value": "<p>Your bloodline is extraordinarily complex. You can have up to three spells from other traditions in your spell repertoire, rather than just one. These spells must each be of a different spell level, but they don't need to be from the same tradition.</p>"
        },
        "featType": {
            "value": "class"
        },
        "level": {
            "value": 18
        },
        "prerequisites": {
            "value": [
                {
                    "value": "Crossblooded Evolution"
                }
            ]
        },
        "rules": [],
        "source": {
            "value": "Pathfinder Core Rulebook"
        },
        "traits": {
            "custom": "",
            "rarity": {
                "value": "common"
            },
            "value": [
                "sorcerer"
            ]
        }
    },
    "effects": [],
    "flags": {},
    "img": "systems/pf2e/icons/features/feats/feats.webp",
    "name": "Greater Crossblooded Evolution",
    "type": "feat"
}
