{
    "_id": "37uOb0iaWCfTCvBZ",
    "data": {
        "actionCategory": {
            "value": ""
        },
        "actionType": {
            "value": "passive"
        },
        "actions": {
            "value": null
        },
        "description": {
            "value": "<p>Choose one creature you can see, and loudly declare the creature's life forfeit by your judgment. That creature becomes your condemned foe until they are defeated, you use Harsh Judgment on a different creature, or the encounter ends. You gain a +2 circumstance bonus to Perception checks to Seek your condemned foe and on Intimidation checks to Demoralize them. You have a -1 circumstance penalty to Perception checks to Seek creatures other than your condemned foe and on Intimidation checks to Demoralize anyone other than your condemned foe.</p>\n<p>You typically can use Harsh Judgment only during an encounter, and if you try to use it to declare someone's life forfeit during exploration or downtime, you are likely to start an encounter.</p>\n<p>@Compendium[pf2e.feat-effects.Effect: Harsh Judgement]{Effect: Harsh Judgement}</p>"
        },
        "featType": {
            "value": "archetype"
        },
        "level": {
            "value": 4
        },
        "location": "",
        "prerequisites": {
            "value": [
                {
                    "value": "Vigilante Dedication"
                },
                {
                    "value": "Member of the Grey Gardeners"
                }
            ]
        },
        "rules": [],
        "source": {
            "value": ""
        },
        "traits": {
            "custom": "",
            "rarity": {
                "value": "common"
            },
            "value": [
                "archetype",
                "vigilante"
            ]
        }
    },
    "effects": [],
    "flags": {},
    "img": "systems/pf2e/icons/default-icons/feats.webp",
    "name": "Harsh Judgement",
    "type": "feat"
}
