{
    "_id": "PWKFdaNghx1YMKlA",
    "data": {
        "actionCategory": {
            "value": "offensive"
        },
        "actionType": {
            "value": "passive"
        },
        "actions": {
            "value": null
        },
        "description": {
            "value": "<p>Your fangs are exceptionally painful. Whenever you score a critical hit with your fangs unarmed attack, you apply the unarmed attack's critical specialization effect.</p>"
        },
        "featType": {
            "value": "ancestry"
        },
        "level": {
            "value": 5
        },
        "location": "",
        "prerequisites": {
            "value": []
        },
        "rules": [
            {
                "key": "Note",
                "outcome": [
                    "criticalSuccess"
                ],
                "selector": "fangs-damage",
                "text": "<p class='compact-text'><strong>Critical Specialization</strong>: The target must succeed at a Fortitude save against your class DC or be @Compendium[pf2e.conditionitems.Slowed]{Slowed 1} until the end of your next turn.</p>"
            }
        ],
        "source": {
            "value": "Pathfinder Lost Omens: The Mwangi Expanse"
        },
        "traits": {
            "custom": "",
            "rarity": {
                "value": "common"
            },
            "value": [
                "anadi"
            ]
        }
    },
    "effects": [],
    "flags": {},
    "img": "systems/pf2e/icons/default-icons/feats.webp",
    "name": "Hunter's Fangs",
    "type": "feat"
}
