{
    "_id": "ZFkCMl63ogK55Otq",
    "data": {
        "actionCategory": {
            "value": ""
        },
        "actionType": {
            "value": "passive"
        },
        "actions": {
            "value": null
        },
        "description": {
            "value": "<p>Your patron grants you even greater secrets. Choose a major, greater, or basic lesson from the list of witch lessons. You gain its associated hex, and your familiar learns the associated spell. Increase the number of Focus Points in your focus pool by 1.</p>\n<p><strong>Special</strong> You can select this feat a second time if you're 14th level or higher, and a third time if you're 18th level or higher. Choose a different lesson each time.</p>"
        },
        "featType": {
            "value": "class"
        },
        "level": {
            "value": 10
        },
        "prerequisites": {
            "value": []
        },
        "rules": [
            {
                "key": "ActiveEffectLike",
                "mode": "add",
                "path": "data.resources.focus.max",
                "value": 1
            }
        ],
        "source": {
            "value": "Pathfinder Advanced Player's Guide"
        },
        "traits": {
            "custom": "",
            "rarity": {
                "value": "common"
            },
            "value": [
                "witch"
            ]
        }
    },
    "effects": [],
    "flags": {},
    "img": "systems/pf2e/icons/features/feats/feats.webp",
    "name": "Major Lesson",
    "type": "feat"
}
