{
    "_id": "AmV13b9ncALtWJFt",
    "data": {
        "actionCategory": {
            "value": "defensive"
        },
        "actionType": {
            "value": "reaction"
        },
        "actions": {
            "value": null
        },
        "description": {
            "value": "<p><strong>Trigger</strong> The spell attack roll for a foe's spell with an elemental trait targeting you fails or critically fails.</p>\n<hr />\n<p>You seize the elemental essence of an incoming spell and redirect the spell to a creature of your choice within the spell's area. The attacker rerolls the spell's attack roll against the new target.</p>"
        },
        "featType": {
            "value": "archetype"
        },
        "level": {
            "value": 12
        },
        "location": "",
        "prerequisites": {
            "value": [
                {
                    "value": "Elementalist Dedication"
                }
            ]
        },
        "rules": [],
        "source": {
            "value": ""
        },
        "traits": {
            "custom": "",
            "rarity": {
                "value": "common"
            },
            "value": [
                "archetype"
            ]
        }
    },
    "effects": [],
    "flags": {},
    "img": "systems/pf2e/icons/default-icons/feat.svg",
    "name": "Redirect Elements",
    "type": "feat"
}
