{
    "_id": "Ux0DSklFlIlcvnhO",
    "data": {
        "actionCategory": {
            "value": ""
        },
        "actionType": {
            "value": "passive"
        },
        "actions": {
            "value": null
        },
        "description": {
            "value": "<p>The power of your faith suffuses your ki. When you select this feat, choose chaos, evil, good, or law. Your choice must match one of your deity's alignment components.</p>\n<p>When you cast the <em>@Compendium[pf2e.spells-srd.Ki Strike]{Ki Strike}</em> focus spell and damage a creature whose alignment is opposite your chosen alignment, you can choose for the <em>ki strike</em> damage to be of the chosen type.</p>\n<p>Additionally, you can substitute the damage from <em>@Compendium[pf2e.spells-srd.Ki Blast]{Ki Blast}</em> (or other ki spells that deal force damage, at the GM's discretion) with damage of your chosen alignment.</p>\n<p>@Compendium[pf2e.spell-effects.Spell Effect: Ki Strike (Chaotic)]{Spell Effect: Ki Strike (Chaotic)}</p>\n<p>@Compendium[pf2e.spell-effects.Spell Effect: Ki Strike (Evil)]{Spell Effect: Ki Strike (Evil)}</p>\n<p>@Compendium[pf2e.spell-effects.Spell Effect: Ki Strike (Good)]{Spell Effect: Ki Strike (Good)}</p>\n<p>@Compendium[pf2e.spell-effects.Spell Effect: Ki Strike (Lawful)]{Spell Effect: Ki Strike (Lawful)}</p>"
        },
        "featType": {
            "value": "class"
        },
        "level": {
            "value": 4
        },
        "location": "",
        "prerequisites": {
            "value": [
                {
                    "value": "Ki Strike"
                },
                {
                    "value": "you follow a deity"
                }
            ]
        },
        "rules": [],
        "source": {
            "value": "Pathfinder Lost Omens: Gods & Magic"
        },
        "traits": {
            "custom": "",
            "rarity": {
                "value": "common"
            },
            "value": [
                "monk"
            ]
        }
    },
    "effects": [],
    "flags": {},
    "img": "systems/pf2e/icons/features/feats/feats.webp",
    "name": "Sacred Ki",
    "type": "feat"
}
