{
    "_id": "R7BO8br4BjCmpjit",
    "data": {
        "actionCategory": {
            "value": ""
        },
        "actionType": {
            "value": "passive"
        },
        "actions": {
            "value": null
        },
        "description": {
            "value": "<p>Your studies open up new horizons. You become an expert in a Lore skill about a specific settlement; if you were already trained in that Lore skill, you also become trained in the Lore skill for a different settlement of your choice. Choose a single common or uncommon language prevalent in that settlement. You learn that language.</p>\n<p><strong>Special</strong> You can take this feat multiple times. When you take this feat again, choose a different settlement.</p>"
        },
        "featType": {
            "value": "skill"
        },
        "level": {
            "value": 4
        },
        "prerequisites": {
            "value": [
                {
                    "value": "Archaeologist Dedication"
                }
            ]
        },
        "rules": [],
        "source": {
            "value": "Pathfinder Advanced Player's Guide"
        },
        "traits": {
            "custom": "",
            "rarity": {
                "value": "common"
            },
            "value": [
                "archetype",
                "skill"
            ]
        }
    },
    "effects": [],
    "flags": {},
    "img": "systems/pf2e/icons/features/feats/feats.webp",
    "name": "Settlement Scholastics",
    "type": "feat"
}
