{
    "_id": "67UXSHUUH0K36xyB",
    "data": {
        "actionCategory": {
            "value": ""
        },
        "actionType": {
            "value": "passive"
        },
        "actions": {
            "value": null
        },
        "description": {
            "value": "<p><strong>Access</strong> You are from Dongun Hold or Alkenstar.</p>\n<hr />\n<p>You're used to fighting and hiding in a haze of smoke and flame. You automatically succeed at the <span data-pf2-check=\"flat\" data-pf2-label=\"Smoke Sight DC\" data-pf2-dc=\"5\" data-pf2-show-dc=\"owner\">Flat Check</span> to target a @Compendium[pf2e.conditionitems.Concealed]{Concealed} creature if that creature is concealed only by smoke. When you are concealed or @Compendium[pf2e.conditionitems.Hidden]{Hidden} in smoke, increase the DC of the flat check to target you to 6 if you're concealed or 12 if you're hidden.</p>"
        },
        "featType": {
            "value": "ancestry"
        },
        "level": {
            "value": 9
        },
        "location": "",
        "prerequisites": {
            "value": []
        },
        "rules": [],
        "source": {
            "value": ""
        },
        "traits": {
            "custom": "",
            "rarity": {
                "value": "uncommon"
            },
            "value": [
                "dwarf"
            ]
        }
    },
    "effects": [],
    "flags": {},
    "img": "systems/pf2e/icons/default-icons/feats.webp",
    "name": "Smoke Sight",
    "type": "feat"
}
