{
    "_id": "GPsYtPdkAkk710F3",
    "data": {
        "actionCategory": {
            "value": ""
        },
        "actionType": {
            "value": "passive"
        },
        "actions": {
            "value": null
        },
        "description": {
            "value": "<p>Your elemental ancestor was a janni, genies that walk the mortal world and embody all four elements together. You inherited a janni's nature as a wanderer and ability to survive in many types of environment, from the hottest desert to the coldest tundra. You gain the trained proficiency rank in Survival. If you would automatically become trained in Survival (from your background or class, for example), you instead become trained in a skill of your choice. You gain the @Compendium[pf2e.feats-srd.Forager]{Forager} skill feat as a bonus feat.</p>"
        },
        "featType": {
            "value": "ancestry"
        },
        "level": {
            "value": 1
        },
        "location": "",
        "prerequisites": {
            "value": []
        },
        "rules": [],
        "source": {
            "value": "Pathfinder Lost Omens: Ancestry Guide"
        },
        "traits": {
            "custom": "",
            "rarity": {
                "value": "common"
            },
            "value": [
                "lineage",
                "suli"
            ]
        }
    },
    "effects": [],
    "flags": {},
    "img": "systems/pf2e/icons/features/feats/feats.webp",
    "name": "Suli-jann",
    "type": "feat"
}
