{
    "_id": "d0jsFEx8kq9idSlo",
    "data": {
        "description": {
            "value": "<p>Granted by <em>@Compendium[pf2e.spells-srd.Boost Eidolon]{Boost Eidolon}</em></p>\n<p>You focus deeply on the link between you and your eidolon and boost the power of your eidolon's attacks. Your eidolon gains a +2 status bonus to damage rolls with its unarmed attacks. If your eidolon's Strikes deal more than one weapon damage die, the status bonus increases to 2 per weapon damage die, to a maximum of +8 with four weapon damage dice.</p>"
        },
        "duration": {
            "expiry": "turn-start",
            "sustained": false,
            "unit": "rounds",
            "value": 1
        },
        "level": {
            "value": 1
        },
        "rules": [
            {
                "key": "FlatModifier",
                "label": "Boost Eidolon",
                "predicate": {
                    "all": [
                        "unarmed"
                    ]
                },
                "selector": "damage",
                "type": "status",
                "value": 6
            }
        ],
        "source": {
            "value": "Pathfinder Secrets of Magic"
        },
        "start": {
            "initiative": null,
            "value": 0
        },
        "target": null,
        "tokenIcon": {
            "show": true
        },
        "traits": {
            "custom": "",
            "rarity": {
                "value": "common"
            },
            "value": []
        }
    },
    "effects": [],
    "flags": {},
    "img": "systems/pf2e/icons/default-icons/effect.svg",
    "name": "Spell Effect: Boost Eidolon (3 Dice)",
    "type": "effect"
}
