{
    "_id": "llrOM8rPP9nxIuEN",
    "data": {
        "description": {
            "value": "<p>Granted by casting <em>@Compendium[pf2e.spells-srd.Insect Form]{Insect Form}</em>.</p>\n<p>You envision a simple bug and transform into a Medium animal battle form. When you cast this spell, choose a form.</p>\n<p>You can decide the specific type of animal (such as such as a ladybug or scarab for beetle), but this has no effect on the form's Size or statistics. While in this form, you gain the animal trait. You can Dismiss this spell.</p>\n<p>You gain the following statistics and abilities regardless of which battle form you choose:</p>\n<ul>\n<li>AC = 18 + your level. Ignore your armor's check penalty and Speed reduction.</li>\n<li>10 temporary Hit Points.</li>\n<li>Low-light vision.</li>\n<li>One or more attacks specific to the battle form you choose, which are the only attacks you can use. You're trained with them. Your attack modifier is +13, and your damage bonus is +2. These attacks are Strength based (for the purpose of the @Compendium[pf2e.conditionitems.Enfeebled]{Enfeebled} condition). If your unarmed attack modifier is higher, you can use it instead.</li>\n<li>Athletics modifier of +13, unless your own is higher.</li>\n</ul>\n<p>You also gain specific abilities based on the form you choose:</p>\n<ul>\n<li><strong>Mantis</strong>\n<ul>\n<li>Speed 40 feet; imprecise scent 30 feet;</li>\n<li>Melee <span class=\"pf2-icon\">1</span> foreleg, <strong>Damage</strong> 2d8 bludgeoning.</li>\n</ul>\n</li>\n</ul>\n<hr />\n<p><strong>Heightened (4th)</strong> Your battle form is Large, and your attacks have 10-foot reach. You must have enough space to expand into or the spell is lost. You instead gain 15 temporary HP, attack modifier +16, damage bonus +6, and Athletics +16.</p>\n<p><strong>Heightened (5th)</strong> Your battle form is Huge, and your attacks have 15-foot reach. You must have enough space to expand into or the spell is lost. You instead gain 20 temporary HP, attack modifier +18, damage bonus +2 and double damage dice (including @Compendium[pf2e.conditionitems.Persistent Damage]{Persistent Damage}), and Athletics +20.</p>\n<hr />\n<p><em>Note: To heighten this effect, import it into your Item Directory and edit the level before adding it to the target</em></p>"
        },
        "duration": {
            "expiry": "turn-start",
            "sustained": false,
            "unit": "minutes",
            "value": 1
        },
        "level": {
            "value": 3
        },
        "rules": [
            {
                "key": "BattleForm",
                "overrides": {
                    "senses": {
                        "lowLightVision": {},
                        "scent": {
                            "acuity": "imprecise",
                            "range": 30
                        }
                    },
                    "speeds": {
                        "land": 40
                    },
                    "strikes": {
                        "foreleg": {
                            "ability": "str",
                            "category": "unarmed",
                            "damage": {
                                "damageType": "bludgeoning",
                                "dice": 2,
                                "die": "d8"
                            },
                            "group": "brawling",
                            "traits": [
                                "unarmed"
                            ]
                        }
                    },
                    "traits": [
                        "animal"
                    ]
                },
                "value": {
                    "brackets": [
                        {
                            "end": 3,
                            "start": 3,
                            "value": {
                                "armorClass": {
                                    "modifier": "18 + @details.level.value"
                                },
                                "size": "med",
                                "skills": {
                                    "ath": {
                                        "modifier": 13
                                    }
                                },
                                "strikes": {
                                    "foreleg": {
                                        "damage": {
                                            "modifier": 2
                                        },
                                        "modifier": 13
                                    }
                                },
                                "tempHP": 10
                            }
                        },
                        {
                            "end": 4,
                            "start": 4,
                            "value": {
                                "armorClass": {
                                    "modifier": "18 + @details.level.value"
                                },
                                "size": "lg",
                                "skills": {
                                    "ath": {
                                        "modifier": 16
                                    }
                                },
                                "strikes": {
                                    "foreleg": {
                                        "damage": {
                                            "modifier": 6
                                        },
                                        "modifier": 16,
                                        "traits": [
                                            "unarmed",
                                            "reach-10"
                                        ]
                                    }
                                },
                                "tempHP": 15
                            }
                        },
                        {
                            "start": 5,
                            "value": {
                                "armorClass": {
                                    "modifier": "18 + @details.level.value"
                                },
                                "size": "huge",
                                "skills": {
                                    "ath": {
                                        "modifier": 20
                                    }
                                },
                                "strikes": {
                                    "foreleg": {
                                        "damage": {
                                            "dice": 4,
                                            "modifier": 2
                                        },
                                        "modifier": 18,
                                        "traits": [
                                            "unarmed",
                                            "reach-15"
                                        ]
                                    }
                                },
                                "tempHP": 20
                            }
                        }
                    ],
                    "field": "item|data.level.value"
                }
            },
            {
                "key": "ActiveEffectLike",
                "mode": "override",
                "path": "flags.pf2e.disableABP",
                "value": true
            }
        ],
        "source": {
            "value": ""
        },
        "start": {
            "initiative": null,
            "value": 0
        },
        "target": null,
        "tokenIcon": {
            "show": true
        },
        "traits": {
            "custom": "",
            "rarity": {
                "value": "common"
            },
            "value": []
        }
    },
    "effects": [],
    "flags": {},
    "img": "systems/pf2e/icons/spells/insect-form.webp",
    "name": "Spell Effect: Insect Form (Mantis)",
    "type": "effect"
}
