{
    "_id": "UXdt1WVA66oZOoZS",
    "data": {
        "description": {
            "value": "<p>Granted by @Compendium[pf2e.spells-srd.Flame Barrier]{Flame Barrier}</p>"
        },
        "duration": {
            "expiry": "turn-start",
            "sustained": false,
            "unit": "rounds",
            "value": 1
        },
        "level": {
            "value": 4
        },
        "rules": [
            {
                "key": "Resistance",
                "type": "fire",
                "value": "5 + 5*floor(@item.level.value/2)"
            }
        ],
        "source": {
            "value": ""
        },
        "start": {
            "initiative": null,
            "value": 0
        },
        "target": null,
        "tokenIcon": {
            "show": true
        },
        "traits": {
            "custom": "",
            "rarity": {
                "value": "common"
            },
            "value": []
        }
    },
    "effects": [],
    "flags": {},
    "img": "systems/pf2e/icons/spells/flame-barrier.webp",
    "name": "Spell Effect: Flame Barrier",
    "type": "effect"
}
