{
    "_id": "sXe7cPazOJbX41GU",
    "data": {
        "description": {
            "value": "<p>You corrupt yourself with the sin of the Abyss, transforming into a Medium demon battle form. When you cast this spell, choose babau, hezrou, nabasu, or vrock. If you choose hezrou, the battle form is Large and you must have enough space to expand into or the spell is lost. While in this form, you gain the demon and fiend traits. You have hands in this battle form and can use manipulate actions. You can Dismiss the spell.</p>\n<p>You gain the following statistics and abilities regardless of the form that you choose:</p>\n<ul>\n<li>AC = 20 + your level. Ignore your armor check's penalty and Speed reduction.</li>\n<li>30 temporary Hit Points, weakness 5 to cold iron, and weakness 5 to good.</li>\n<li>Darkvision.</li>\n<li>One or more attacks specific to the battle form you use. You're trained with them. Your attack modifier is +22, and you use the listed damage. These attacks are Strength based (for the purpose of the enfeebled condition, for example). If your attack modifier is higher for the given unarmed attack or weapon, you can use it instead.</li>\n<li>Athletics modifier of +23, unless your own modifier is higher.</li>\n</ul>\n<p>You also gain specific abilities based on the type of demon you choose:</p>\n<ul>\n<li><strong>Babau</strong> Speed 25 feet; <strong>Melee</strong> <span class=\"pf2-icon\">1</span> longspear (reach 10 feet), <strong>Damage</strong> 2d8+10 piercing plus 1d6 evil; <strong>Melee</strong> <span class=\"pf2-icon\">1</span> jaws, <strong>Damage</strong> 2d10 piercing plus 1d6 evil; <strong>Melee</strong> <span class=\"pf2-icon\">1</span> claw (agile), <strong>Damage</strong> 2d4 slashing plus 1d6 evil; all Strikes deal 2d6 additional precision damage to @Compendium[pf2e.conditionitems.Flat-Footed]{Flat-Footed} creatures.</li>\n<li><strong>Hezrou</strong> Speed 30 feet, swim 30 feet; <strong>Melee</strong> <span class=\"pf2-icon\">1 </span>jaws (reach 10 feet), <strong>Damage</strong> 2d12+10 piercing plus 1d6 evil, and you can spend an action after a hit to Grab the target; <strong>Melee</strong> <span class=\"pf2-icon\">1</span> claw (agile, reach 10 feet), <strong>Damage</strong> 2d8 slashing plus 1d6 evil.</li>\n<li><strong>Nabasu</strong> Speed 25 feet, fly 40 feet; <strong>Melee</strong> <span class=\"pf2-icon\">1</span> jaws, <strong>Damage</strong> 2d10+10 piercing plus 1d6 evil; <strong>Melee</strong> <span class=\"pf2-icon\">1 </span>claw (agile), <strong>Damage</strong> 2d6 slashing plus 1d6 evil.</li>\n<li><strong>Vrock</strong> Speed 25 feet, fly 35 feet; resistance 10 to electricity; <strong>Melee</strong> <span class=\"pf2-icon\">1</span> beak, <strong>Damage</strong> 2d8+10 piercing plus 1d6 evil; <strong>Melee</strong> <span class=\"pf2-icon\">1</span> claw (agile), <strong>Damage</strong> 2d6 slashing plus 1d6 evil; <strong>Melee</strong> <span class=\"pf2-icon\">1</span> talon (agile), <strong>Damage</strong> 2d6 slashing plus 1d6 evil.</li>\n</ul>"
        },
        "duration": {
            "expiry": "turn-start",
            "sustained": false,
            "unit": "minutes",
            "value": 1
        },
        "level": {
            "value": 6
        },
        "rules": [
            {
                "hasHands": true,
                "key": "BattleForm",
                "overrides": {
                    "armorClass": {
                        "modifier": "20 + @details.level.value"
                    },
                    "senses": {
                        "darkvision": {}
                    },
                    "size": "lg",
                    "skills": {
                        "ath": {
                            "modifier": 23
                        }
                    },
                    "speeds": {
                        "land": 30,
                        "swim": 30
                    },
                    "strikes": {
                        "claw": {
                            "ability": "str",
                            "baseType": "claw",
                            "category": "unarmed",
                            "damage": {
                                "damageType": "slashing",
                                "dice": 2,
                                "die": "d8"
                            },
                            "group": "brawling",
                            "label": "PF2E.Weapon.Base.claw",
                            "modifier": 22,
                            "traits": [
                                "unarmed",
                                "agile"
                            ]
                        },
                        "jaws": {
                            "ability": "str",
                            "baseType": "jaws",
                            "category": "unarmed",
                            "damage": {
                                "damageType": "piercing",
                                "dice": 2,
                                "die": "d12",
                                "modifier": 10
                            },
                            "group": "brawling",
                            "label": "PF2E.Weapon.Base.jaws",
                            "modifier": 22,
                            "traits": [
                                "unarmed",
                                "reach-10"
                            ]
                        }
                    },
                    "tempHP": 30,
                    "traits": [
                        "demon",
                        "fiend"
                    ],
                    "weaknesses": [
                        {
                            "type": "coldiron",
                            "value": 5
                        },
                        {
                            "type": "good",
                            "value": 5
                        }
                    ]
                }
            },
            {
                "damageType": "evil",
                "diceNumber": 1,
                "dieSize": "d6",
                "key": "DamageDice",
                "predicate": {
                    "all": [
                        "battle-form"
                    ]
                },
                "selector": "damage"
            },
            {
                "key": "Note",
                "predicate": {
                    "all": [
                        "battle-form"
                    ]
                },
                "selector": "claw-damage",
                "text": "<p class='compact-text'><strong>Demon Form (Hezrou)</strong>: You can spend an action after a hit to @Compendium[pf2e.bestiary-ability-glossary-srd.Grab]{Grab} the target</p>"
            }
        ],
        "source": {
            "value": "Pathfinder Secrets of Magic"
        },
        "start": {
            "initiative": null,
            "value": 0
        },
        "target": null,
        "tokenIcon": {
            "show": true
        },
        "traits": {
            "custom": "",
            "rarity": {
                "value": "common"
            },
            "value": []
        }
    },
    "effects": [],
    "flags": {},
    "img": "systems/pf2e/icons/spells/demon-form.webp",
    "name": "Spell Effect: Demon Form (Hezrou)",
    "type": "effect"
}
