{
    "_id": "MAPeYoCQhxz4fxcL",
    "data": {
        "actionCategory": {
            "value": ""
        },
        "actionType": {
            "value": "passive"
        },
        "actions": {
            "value": null
        },
        "description": {
            "value": "<p>The voices of generations past speak to you, and you hear their words. You might resent the constant interruption, or you might revere the spirits of those who came before. Perhaps you hail from a culture with strong ancestral traditions, such as the Shoanti Skoan-Quah (Skull Clan), a traditional dwarven community that worships Torag's family pantheon, or a group that reveres Erastil or Pharasma. You might commune with powerful psychopomps who shepherd souls to the afterlife, with the River of Souls itself, or with those spirits who have become trapped outside of the great cycle of spiritual rebirth. You learn from their whispers and the fragments of their memories, but opening your mind to their knowledge and experience also allows them to meddle in your worldly affairs.</p>\n<h3>Curse of Ancestral Meddling</h3>\n<p>The ancestral spirits you commune with haunt you and meddle with your belongings and actions, either out of a well-intentioned (but ultimately detrimental) attempt to assist you, as punishment for your audacity in circumventing the traditional means of achieving divine power, for their own amusement, or a mixture of the above. Your hair, clothing, and belongings constantly shift and stir, seemingly of their own volition.</p>"
        },
        "featType": {
            "value": "classfeature"
        },
        "level": {
            "value": 2
        },
        "location": "",
        "prerequisites": {
            "value": []
        },
        "rules": [],
        "source": {
            "value": ""
        },
        "traits": {
            "custom": "",
            "rarity": {
                "value": "common"
            },
            "value": [
                "oracle"
            ]
        }
    },
    "effects": [],
    "flags": {},
    "img": "systems/pf2e/icons/features/classes/ancestors-mystery.webp",
    "name": "Ancestors Mystery (Multiclass)",
    "type": "feat"
}
