{
    "_id": "y0jGimYdMGDJWrEq",
    "data": {
        "actionCategory": {
            "value": ""
        },
        "actionType": {
            "value": "passive"
        },
        "actions": {
            "value": null
        },
        "description": {
            "value": "<p>Your muse is a jack of all trades, flitting between skills and pursuits. If it's is a creature, it might be an eclectic creature like a fey; if a deity, it might be Desna or Calistria. As a bard with a polymath muse, you are interested in a wide array of topics but rarely dedicated to any one, and you rarely make up your mind-you want to try everything. You gain the @Compendium[pf2e.feats-srd.Versatile Performance]{Versatile Performance} feat and add <em>@Compendium[pf2e.spells-srd.Unseen Servant]{Unseen Servant}</em> to your spell repertoire.</p>"
        },
        "featType": {
            "value": "classfeature"
        },
        "level": {
            "value": 1
        },
        "location": "",
        "prerequisites": {
            "value": []
        },
        "rules": [],
        "source": {
            "value": ""
        },
        "traits": {
            "custom": "",
            "rarity": {
                "value": "common"
            },
            "value": [
                "bard"
            ]
        }
    },
    "effects": [],
    "flags": {},
    "img": "systems/pf2e/icons/features/classes/polymath.webp",
    "name": "Polymath Muse",
    "type": "feat"
}
