{
    "_id": "d1zIcvHE3z7k0Rzs",
    "data": {
        "attributes": {
            "ac": {
                "value": 0
            },
            "hardness": 0,
            "hasHealth": false,
            "hp": {
                "details": "",
                "max": 0,
                "temp": 0,
                "value": 0
            },
            "stealth": {
                "details": "(expert)",
                "value": 18
            }
        },
        "creatureType": "",
        "details": {
            "description": "Passing over an invisible rune on the floor between the north and south doors triggers a dancing burst of electricity. ",
            "disable": "<p><span data-pf2-check=\"thievery\" data-pf2-traits=\"complex,magical,trap\" data-pf2-label=\"Bleed away trap energy DC\" data-pf2-dc=\"26\" data-pf2-show-dc=\"gm\">Thievery</span> (expert), <span data-pf2-check=\"arcana\" data-pf2-traits=\"complex,magical,trap\" data-pf2-label=\"Bleed away trap energy DC\" data-pf2-dc=\"28\" data-pf2-show-dc=\"gm\">Arcana</span> (expert), or <span data-pf2-check=\"occultism\" data-pf2-traits=\"complex,magical,trap\" data-pf2-label=\"Bleed away trap energy DC\" data-pf2-dc=\"28\" data-pf2-show-dc=\"gm\">Occultism</span> (expert) to harmlessly bleed away the electrical energy from the rune. Once the trap has been activated, the electrical energy is stronger, so three successful checks (of any combination of the relevant skills) are necessary to deactivate it, but these checks can be attempted from anywhere in the room.</p>",
            "isComplex": true,
            "level": {
                "value": 8
            },
            "reset": "The pulses stop as soon as no creatures are in the hallway, and then reset after 1 hour. ",
            "routine": "<p><span class=\"pf2-icon\">1</span> The trap deals [[/r {4d10}[electricity]]]{4d10 electricity damage} (<span data-pf2-check=\"reflex\" data-pf2-traits=\"complex,magical,trap,arcane,electricity,evocation\" data-pf2-label=\"Avoid Electrical Shock DC\" data-pf2-dc=\"26\" data-pf2-show-dc=\"gm\">basic Reflex</span> save) to all creatures in the room. A creature that fails the save is @Compendium[pf2e.conditionitems.Slowed]{Slowed 1} (@Compendium[pf2e.conditionitems.Slowed]{Slowed 2} on a critical failure). A creature that isn't touching the water treats the result of its saving throw as one degree of success better.</p>"
        },
        "saves": {
            "fortitude": {
                "saveDetail": "",
                "value": 0
            },
            "reflex": {
                "saveDetail": "",
                "value": 0
            },
            "will": {
                "saveDetail": "",
                "value": 0
            }
        },
        "source": {
            "value": "Pathfinder #170: Spoken on the Song Wind"
        },
        "statusEffects": [],
        "traits": {
            "ci": [],
            "di": {
                "custom": "",
                "selected": {},
                "value": []
            },
            "dr": [],
            "dv": [],
            "rarity": {
                "value": "common"
            },
            "size": {
                "value": "med"
            },
            "traits": {
                "custom": "",
                "value": [
                    "magical"
                ]
            }
        }
    },
    "effects": [],
    "flags": {},
    "img": "systems/pf2e/icons/default-icons/hazard.svg",
    "items": [
        {
            "_id": "twb5bp7csgs3vy15",
            "data": {
                "actionCategory": {
                    "value": "offensive"
                },
                "actionType": {
                    "value": "reaction"
                },
                "actions": {
                    "value": null
                },
                "description": {
                    "value": "<p data-visibility=\"gm\"><strong>Trigger</strong> A creature passes over the invisible underwater rune between the north and south doors;</p>\n<p><strong>Effect</strong> The trap deals [[/r {4d10}[electricity]]]{4d10 electricity damage} (<span data-pf2-check=\"reflex\" data-pf2-traits=\"complex,magical,trap,arcane,electricity,evocation\" data-pf2-label=\"Avoid Electrical Shock DC\" data-pf2-dc=\"26\" data-pf2-show-dc=\"gm\">basic Reflex</span> save) to creatures touching the water, and then rolls initiative.</p>"
                },
                "requirements": {
                    "value": ""
                },
                "rules": [],
                "slug": null,
                "source": {
                    "value": ""
                },
                "traits": {
                    "custom": "",
                    "rarity": {
                        "value": "common"
                    },
                    "value": [
                        "arcane",
                        "electricity",
                        "evocation"
                    ]
                },
                "trigger": {
                    "value": ""
                },
                "weapon": {
                    "value": ""
                }
            },
            "effects": [],
            "flags": {},
            "img": "systems/pf2e/icons/actions/Reaction.webp",
            "name": "Electrocution",
            "sort": 0,
            "type": "action"
        }
    ],
    "name": "Electrified Water Ward",
    "token": {
        "disposition": 0,
        "height": 1,
        "img": "systems/pf2e/icons/default-icons/hazard.svg",
        "name": "Electrified Water Ward",
        "width": 1
    },
    "type": "hazard"
}
