{
    "_id": "gIixylfr1NtCRdcK",
    "data": {
        "abilities": {
            "cha": {
                "mod": 3,
                "value": 16
            },
            "con": {
                "mod": 0,
                "value": 10
            },
            "dex": {
                "mod": 7,
                "value": 24
            },
            "int": {
                "mod": 3,
                "value": 16
            },
            "str": {
                "mod": -5,
                "value": 0
            },
            "wis": {
                "mod": 7,
                "value": 24
            }
        },
        "attributes": {
            "ac": {
                "details": "",
                "value": 27
            },
            "allSaves": {
                "value": ""
            },
            "hp": {
                "details": "negative healing, rejuvenation",
                "max": 125,
                "temp": 0,
                "value": 125
            },
            "initiative": {
                "ability": "perception"
            },
            "perception": {
                "value": 22
            },
            "shield": {
                "ac": 2,
                "brokenThreshold": 0,
                "hardness": 0,
                "max": 0,
                "value": 0
            },
            "speed": {
                "otherSpeeds": [
                    {
                        "label": "Fly",
                        "type": "fly",
                        "value": "40"
                    }
                ],
                "special": "",
                "value": "0"
            }
        },
        "details": {
            "alignment": {
                "value": "NE"
            },
            "blurb": "",
            "creatureType": "",
            "level": {
                "value": 10
            },
            "privateNotes": "",
            "publicNotes": "<p>A screaming sulfur is a creature born from gasping death and suffocating suffering. When an earthquake or other geological phenomena releases toxic gases, these gases can build up beneath lakes and other large bodies of water. Eventually, they escape the water, expanding into massive clouds that cover the immediate area. Its silent, unexpected arrival can take thousands of lives in an instant. Confused, in pain, and desperate for a way out, the dying souls become trapped in the noxious cloud and amass into this horrifying creature.</p>\n<p>While not truly undead, a screaming sulfur shares many similarities with undead creatures, including the malice of vengeful spirits and the hatred of all living creatures who breathe freely and painlessly.</p>\n<p>A screaming sulfur resembles a cloud made of countless, featureless faces, mouths agape and releasing ghastly wails.</p>",
            "source": {
                "author": "",
                "value": "Pathfinder #171: Hurricane's Howl"
            }
        },
        "resources": {},
        "saves": {
            "fortitude": {
                "saveDetail": "",
                "value": 16
            },
            "reflex": {
                "saveDetail": "",
                "value": 20
            },
            "will": {
                "saveDetail": "",
                "value": 20
            }
        },
        "traits": {
            "ci": [],
            "di": {
                "custom": "",
                "value": [
                    "death-effects",
                    "disease",
                    "paralyzed",
                    "poison",
                    "precision",
                    "unconscious"
                ]
            },
            "dr": [
                {
                    "exceptions": "except force, ghost touch, or positive; double resistance vs. non-magical",
                    "type": "all",
                    "value": 10
                }
            ],
            "dv": [],
            "languages": {
                "custom": "",
                "selected": [],
                "value": [
                    "common"
                ]
            },
            "rarity": {
                "value": "uncommon"
            },
            "senses": {
                "value": "darkvision"
            },
            "size": {
                "value": "huge"
            },
            "traits": {
                "custom": "",
                "value": [
                    "incorporeal",
                    "spirit"
                ]
            }
        }
    },
    "effects": [],
    "flags": {},
    "img": "systems/pf2e/icons/default-icons/npc.svg",
    "items": [
        {
            "_id": "DIHzlypsj6AqB98M",
            "data": {
                "attack": {
                    "value": ""
                },
                "attackEffects": {
                    "value": []
                },
                "bonus": {
                    "value": 21
                },
                "damageRolls": {
                    "iikdywgrmerdy4hojtqj": {
                        "damage": "2d8+15",
                        "damageType": "negative"
                    }
                },
                "description": {
                    "value": ""
                },
                "rules": [],
                "slug": null,
                "source": {
                    "value": ""
                },
                "traits": {
                    "custom": "",
                    "rarity": {
                        "value": "common"
                    },
                    "value": [
                        "agile",
                        "finesse",
                        "magical",
                        "reach-15"
                    ]
                },
                "weaponType": {
                    "value": "melee"
                }
            },
            "effects": [],
            "flags": {},
            "img": "systems/pf2e/icons/default-icons/melee.svg",
            "name": "Ghostly Hand",
            "sort": 100000,
            "type": "melee"
        },
        {
            "_id": "Qnoar9EMml4FX0mt",
            "data": {
                "actionCategory": {
                    "value": "interaction"
                },
                "actionType": {
                    "value": "passive"
                },
                "actions": {
                    "value": null
                },
                "description": {
                    "value": "<p>@Localize[PF2E.NPC.Abilities.Glossary.Darkvision]</p>"
                },
                "requirements": {
                    "value": ""
                },
                "rules": [],
                "slug": "darkvision",
                "source": {
                    "value": ""
                },
                "traits": {
                    "custom": "",
                    "rarity": {
                        "value": "common"
                    },
                    "value": []
                },
                "trigger": {
                    "value": ""
                },
                "weapon": {
                    "value": ""
                }
            },
            "effects": [],
            "flags": {
                "core": {
                    "sourceId": "Compendium.pf2e.bestiary-ability-glossary-srd.qCCLZhnp2HhP3Ex6"
                }
            },
            "img": "systems/pf2e/icons/actions/Passive.webp",
            "name": "Darkvision",
            "sort": 200000,
            "type": "action"
        },
        {
            "_id": "fPMLlH0s8d3DPSbO",
            "data": {
                "actionCategory": {
                    "value": "interaction"
                },
                "actionType": {
                    "value": "passive"
                },
                "actions": {
                    "value": null
                },
                "description": {
                    "value": "<p>A screaming sulfur becomes bound to the location where the people whose souls make up its form died. It can stray up to 1,000 feet from this site of death, or up to 100 feet from the edges of any waterway associated with its death, whichever distance is shorter.</p>\n<hr />\n<p>A typical ghost can stray only a short distance from where it was killed or the place it haunts. A typical limit is 120 feet. Some ghosts are instead bound to a room, building, item, or creature that was special to it rather than a location.</p>"
                },
                "requirements": {
                    "value": "Pathfinder Bestiary"
                },
                "rules": [],
                "slug": "ghost-site-bound",
                "source": {
                    "value": ""
                },
                "traits": {
                    "custom": "",
                    "rarity": {
                        "value": "common"
                    },
                    "value": []
                },
                "trigger": {
                    "value": ""
                },
                "weapon": {
                    "value": ""
                }
            },
            "effects": [],
            "flags": {
                "core": {
                    "sourceId": "Compendium.pf2e.bestiary-family-ability-glossary.BcSlVpaN72LoQ5BV"
                }
            },
            "img": "systems/pf2e/icons/actions/Passive.webp",
            "name": "Site Bound",
            "sort": 300000,
            "type": "action"
        },
        {
            "_id": "avye4ki1pqr7g6ln",
            "data": {
                "actionCategory": {
                    "value": "defensive"
                },
                "actionType": {
                    "value": "passive"
                },
                "actions": {
                    "value": null
                },
                "description": {
                    "value": "<p>@Template[type:emanation|distance:30]{30 feet} @Compendium[pf2e.bestiary-ability-glossary-srd.Aura]{Aura}.</p>\n<p>The screaming sulfur constantly shrieks with the pained wails of countless spirits.</p>\n<p>A living creature that enters or starts its turn in the aura must succeed at a <span data-pf2-check=\"will\" data-pf2-traits=\"auditory,aura,emotion,mental\" data-pf2-label=\"Agonizing Cries DC\" data-pf2-dc=\"26\" data-pf2-show-dc=\"gm\">Will</span> save or become @Compendium[pf2e.conditionitems.Frightened]{Frightened 1} as long as it remains in the aura (@Compendium[pf2e.conditionitems.Frightened]{Frightened 2} on a critical failure).</p>\n<p data-visibility=\"gm\">A creature that succeeds is temporarily immune for 1 hour.</p>"
                },
                "requirements": {
                    "value": ""
                },
                "rules": [],
                "slug": null,
                "source": {
                    "value": ""
                },
                "traits": {
                    "custom": "",
                    "rarity": {
                        "value": "common"
                    },
                    "value": [
                        "auditory",
                        "aura",
                        "emotion",
                        "mental"
                    ]
                },
                "trigger": {
                    "value": ""
                }
            },
            "effects": [],
            "flags": {},
            "img": "systems/pf2e/icons/actions/Passive.webp",
            "name": "Agonizing Cries",
            "sort": 400000,
            "type": "action"
        },
        {
            "_id": "B5KO89Y8cPiUzxZt",
            "data": {
                "actionCategory": {
                    "value": "defensive"
                },
                "actionType": {
                    "value": "passive"
                },
                "actions": {
                    "value": null
                },
                "description": {
                    "value": "<p>@Localize[PF2E.NPC.Abilities.Glossary.NegativeHealing]</p>"
                },
                "requirements": {
                    "value": ""
                },
                "rules": [
                    {
                        "key": "ActiveEffectLike",
                        "mode": "override",
                        "path": "data.attributes.hp.negativeHealing",
                        "value": true
                    }
                ],
                "slug": "negative-healing",
                "source": {
                    "value": ""
                },
                "traits": {
                    "custom": "",
                    "rarity": {
                        "value": "common"
                    },
                    "value": []
                },
                "trigger": {
                    "value": ""
                },
                "weapon": {
                    "value": ""
                }
            },
            "effects": [],
            "flags": {
                "core": {
                    "sourceId": "Compendium.pf2e.bestiary-ability-glossary-srd.TTCw5NusiSSkJU1x"
                }
            },
            "img": "systems/pf2e/icons/actions/Passive.webp",
            "name": "Negative Healing",
            "sort": 500000,
            "type": "action"
        },
        {
            "_id": "DhxhfUgnu5iRDTWL",
            "data": {
                "actionCategory": {
                    "value": "defensive"
                },
                "actionType": {
                    "value": "passive"
                },
                "actions": {
                    "value": null
                },
                "description": {
                    "value": "<p>Blessing the site where the screaming sulfur was formed and burying whatever dead remain allows the spirits within the screaming sulfur to move on to the afterlife, rendering it inert.</p>\n<hr />\n<p>When a ghost is destroyed, it re-forms after [[/br 2d4 #days]]{2d4 days} within the location it's bound to, fully healed. A ghost can be permanently destroyed only if someone determines the reason for its existence and sets right whatever prevents the spirit from resting.</p>"
                },
                "requirements": {
                    "value": "Pathfinder Bestiary"
                },
                "rules": [],
                "slug": "ghost-rejuvenation",
                "source": {
                    "value": ""
                },
                "traits": {
                    "custom": "",
                    "rarity": {
                        "value": "common"
                    },
                    "value": [
                        "divine",
                        "necromancy"
                    ]
                },
                "trigger": {
                    "value": ""
                },
                "weapon": {
                    "value": ""
                }
            },
            "effects": [],
            "flags": {
                "core": {
                    "sourceId": "Compendium.pf2e.bestiary-family-ability-glossary.unR8VVR4yyRnsmnB"
                }
            },
            "img": "systems/pf2e/icons/actions/Passive.webp",
            "name": "Rejuvenation",
            "sort": 600000,
            "type": "action"
        },
        {
            "_id": "zx5k069eu1mqck0j",
            "data": {
                "actionCategory": {
                    "value": "offensive"
                },
                "actionType": {
                    "value": "action"
                },
                "actions": {
                    "value": 2
                },
                "description": {
                    "value": "<p>The screaming sulfur bombards all creatures within its Agonizing Cries aura with visions of death and a feeling of suffocation. Each creature takes [[/r {4d6}[mental]]]{4d6 mental damage} (<span data-pf2-check=\"will\" data-pf2-traits=\"divine,illusion,mental,damaging-effect\" data-pf2-label=\"Choke DC\" data-pf2-dc=\"26\" data-pf2-show-dc=\"gm\">basic Will</span> save).</p>"
                },
                "requirements": {
                    "value": ""
                },
                "rules": [],
                "slug": null,
                "source": {
                    "value": ""
                },
                "traits": {
                    "custom": "",
                    "rarity": {
                        "value": "common"
                    },
                    "value": [
                        "divine",
                        "illusion",
                        "mental"
                    ]
                },
                "trigger": {
                    "value": ""
                }
            },
            "effects": [],
            "flags": {},
            "img": "systems/pf2e/icons/actions/TwoActions.webp",
            "name": "Choke",
            "sort": 700000,
            "type": "action"
        },
        {
            "_id": "h0eu8tly33nuezwy",
            "data": {
                "description": {
                    "value": ""
                },
                "mod": {
                    "value": 22
                },
                "proficient": {
                    "value": 0
                },
                "rules": [],
                "slug": null,
                "source": {
                    "value": ""
                },
                "traits": {
                    "custom": "",
                    "rarity": {
                        "value": "common"
                    },
                    "value": []
                }
            },
            "effects": [],
            "flags": {},
            "img": "systems/pf2e/icons/default-icons/lore.svg",
            "name": "Stealth",
            "sort": 800000,
            "type": "lore"
        }
    ],
    "name": "Screaming Sulfur",
    "token": {
        "disposition": -1,
        "height": 1,
        "img": "systems/pf2e/icons/default-icons/npc.svg",
        "name": "Screaming Sulfur",
        "width": 1
    },
    "type": "npc"
}
