{
    "_id": "9WGeBwIIbbUuWKq0",
    "data": {
        "ability": {
            "value": ""
        },
        "area": {
            "value": ""
        },
        "areasize": {
            "value": ""
        },
        "category": {
            "value": "spell"
        },
        "components": {
            "material": true,
            "somatic": true,
            "verbal": true
        },
        "cost": {
            "value": ""
        },
        "damage": {
            "value": {}
        },
        "description": {
            "value": "<p>Your magic dredges up a corpse or skeleton and fills it with necromantic life, and you force the dead to fight at your command. You summon a common creature that has the undead trait and whose level is -1; this creature gains the summoned trait. Heightening the spell increases the maximum level of creature you can summon.</p>\n<hr />\n<p><strong>Heightened (2nd)</strong> Level 1.</p>\n<p><strong>Heightened (3rd)</strong> Level 2.</p>\n<p><strong>Heightened (4th)</strong> Level 3.</p>\n<p><strong>Heightened (5th)</strong> Level 5.</p>\n<p><strong>Heightened (6th)</strong> Level 7.</p>\n<p><strong>Heightened (7th)</strong> Level 9.</p>\n<p><strong>Heightened (8th)</strong> Level 11.</p>\n<p><strong>Heightened (9th)</strong> Level 13.</p>\n<p><strong>Heightened (10th)</strong> Level 15.</p>"
        },
        "duration": {
            "value": "sustained up to 1 minute"
        },
        "hasCounteractCheck": {
            "value": false
        },
        "level": {
            "value": 1
        },
        "location": {
            "value": ""
        },
        "materials": {
            "value": ""
        },
        "prepared": {
            "value": false
        },
        "primarycheck": {
            "value": ""
        },
        "range": {
            "value": "30 feet"
        },
        "rules": [],
        "save": {
            "basic": "",
            "value": ""
        },
        "school": {
            "value": "necromancy"
        },
        "secondarycasters": {
            "value": ""
        },
        "secondarycheck": {
            "value": ""
        },
        "source": {
            "value": "Pathfinder Advanced Player's Guide"
        },
        "spellType": {
            "value": "utility"
        },
        "sustained": {
            "value": false
        },
        "target": {
            "value": ""
        },
        "time": {
            "value": "3"
        },
        "traditions": {
            "value": [
                "arcane",
                "divine",
                "occult"
            ]
        },
        "traits": {
            "custom": "",
            "rarity": {
                "value": "common"
            },
            "value": []
        }
    },
    "effects": [],
    "flags": {},
    "img": "systems/pf2e/icons/spells/animate-dead.webp",
    "name": "Animate Dead",
    "type": "spell"
}
