{
    "_id": "4Cntq9odgW6xMpAs",
    "data": {
        "ability": {
            "value": ""
        },
        "area": {
            "value": ""
        },
        "areasize": {
            "value": ""
        },
        "category": {
            "value": "ritual"
        },
        "components": {
            "material": false,
            "somatic": false,
            "verbal": false
        },
        "cost": {
            "value": "one jacinth worth a total value of the target's  level (minimum 1) × 5 gp, for each target"
        },
        "damage": {
            "value": {}
        },
        "description": {
            "value": "<p>You project the targets' spiritual essences into the Astral Plane, leaving their inanimate physical forms behind. These astral forms can be used to explore the Astral Plane indefinitely, while the targets' bodies remain safely in stasis on the plane where the ritual was cast (where they remain unconscious and can't be awoken normally). The casters must be in physical contact with one another in a circle for the duration of the casting, and all targets must be selected from these casters.</p>\n<p>A target's astral form is a duplicate of the target and everything they're carrying; anything that happens to a duplicate item happens to the original as well. For instance, if you use, spend, destroy, lose, or give away an item's duplicate, the original vanishes from your possession. For the duration of the ritual, any of the targets can spend a single action to @Compendium[pf2e.actionspf2e.Dismiss]{Dismiss} their astral form and immediately return to their physical body. As the primary caster, when you Dismiss your astral form, you can also Dismiss all the other targets' astral forms as part of the same action, returning all targets to their physical forms simultaneously. While in the Astral Plane, the other targets are unable to navigate without you, and if they become separated from you, they must wait for your return or Dismiss their own astral forms. When the ritual ends, the targets' astral forms vanish.</p>\n<p>A target's astral form and corresponding physical form are linked by an incorporeal silver cord, which is visible only in the Astral Plane. This nearly unbreakable cord serves as a conduit and safety line; if it is severed, the target's astral and physical forms are both immediately slain. If the ritual is interrupted by an external force, such as <em>@Compendium[pf2e.spells-srd.Dispel Magic]{Dispel Magic}</em> being cast on a target's physical or astral form, the target is immediately and harmlessly returned to their physical body. If a target's astral form is slain, the silver cord immediately rips them back to their physical body; the strain requires them to attempt a Fortitude save with the same DC as the ritual's primary check. On a failure, the creature dies; on a success, they become @Compendium[pf2e.conditionitems.Clumsy]{Clumsy 2}, @Compendium[pf2e.conditionitems.Drained]{Drained 2}, @Compendium[pf2e.conditionitems.Doomed]{Doomed 2}, and @Compendium[pf2e.conditionitems.Enfeebled]{Enfeebled 2} for 1 week; these conditions can't be removed or reduced by any means until the week has passed. A target's physical body remains in suspended animation for the duration of the ritual, but if it is destroyed, they die and their astral form also vanishes.</p>\n<p>This ritual only projects a portion of the targets' consciousnesses onto the Astral Plane. To travel physically to the Astral Plane (to reach the Outer Planes, for example) requires spells such as <em>@Compendium[pf2e.spells-srd.Plane Shift]{Plane Shift}</em>.</p>\n<hr />\n<p><strong>Critical Success</strong> All targets are able to navigate independently in the Astral Plane. Each target's silver cord is stronger than usual, providing them a +4 circumstance bonus to their Fortitude save to avoid dying if their astral form dies.</p>\n<p><strong>Success</strong> You successfully project the targets.</p>\n<p><strong>Failure</strong> You fail to project the targets.</p>\n<p><strong>Critical Failure</strong> The process of separating the targets' spirits from their bodies is complicated, and something goes catastrophically wrong. All casters become @Compendium[pf2e.conditionitems.Doomed]{Doomed 1}, are immediately reduced to 0 Hit Points, and begin @Compendium[pf2e.conditionitems.Dying]{Dying}.</p>"
        },
        "duration": {
            "value": "see text"
        },
        "hasCounteractCheck": {
            "value": false
        },
        "level": {
            "value": 5
        },
        "location": {
            "value": ""
        },
        "materials": {
            "value": ""
        },
        "prepared": {
            "value": ""
        },
        "primarycheck": {
            "value": "Arcana or Occultism (master)"
        },
        "range": {
            "value": "touch"
        },
        "rules": [],
        "save": {
            "basic": "",
            "value": ""
        },
        "school": {
            "value": "divination"
        },
        "secondarycasters": {
            "value": "2"
        },
        "secondarycheck": {
            "value": "Arcana or Occultism (whichever isn't used for the  primary check), Survival"
        },
        "source": {
            "value": "Pathfinder Secrets of Magic"
        },
        "spellType": {
            "value": "utility"
        },
        "sustained": {
            "value": false
        },
        "target": {
            "value": "yourself and up to 5 willing creatures"
        },
        "time": {
            "value": "1 hour"
        },
        "traditions": {
            "value": []
        },
        "traits": {
            "custom": "",
            "rarity": {
                "value": "uncommon"
            },
            "value": []
        }
    },
    "effects": [],
    "flags": {},
    "img": "systems/pf2e/icons/spells/astral-projection.webp",
    "name": "Astral Projection",
    "type": "spell"
}
