{
    "_id": "S6Kkk15MWGqzC00a",
    "data": {
        "ability": {
            "value": ""
        },
        "area": {
            "areaType": "",
            "value": null
        },
        "areasize": {
            "value": ""
        },
        "category": {
            "value": "focus"
        },
        "components": {
            "material": false,
            "somatic": true,
            "verbal": true
        },
        "cost": {
            "value": ""
        },
        "damage": {
            "value": {
                "0": {
                    "applyMod": true,
                    "type": {
                        "categories": [],
                        "value": "untyped"
                    },
                    "value": "1d6"
                }
            }
        },
        "description": {
            "value": "<p>You shape energy into one incorporeal tiny dragon (or serpentine creature) that flits around you. The specific dragon is random; roll [[/r 1d6 #dragon]] on the table below for each dragon evoked to determine which type of dragon you create. While the spell persists, you can command one of your dragons to spit a missile of energy at a creature within 60 feet by using a single action, which has the concentrate trait. This is a ranged Strike that uses your spell attack bonus and deals 1d6 damage plus your spellcasting ability modifier, with the damage type depending on the dragon. A dragon's breath Strike uses and contributes to your multiple attack penalty. Once a dragon has used its breath Strike, it winks out of existence; when you have no dragons remaining, the spell ends.</p>\n<h2>Draconic Barrage</h2>\n<table class=\"pf2-table\">\n<thead>\n<tr>\n<th>d6</th>\n<th>Dragon</th>\n<th>Breath Strike type</th>\n</tr>\n</thead>\n<tbody>\n<tr>\n<td>1</td>\n<td>Copper or Black</td>\n<td>Acid</td>\n</tr>\n<tr>\n<td>2</td>\n<td>Silver or White</td>\n<td>Cold</td>\n</tr>\n<tr>\n<td>3</td>\n<td>Bronze or Blue</td>\n<td>Electricity</td>\n</tr>\n<tr>\n<td>4</td>\n<td>Brass, Gold, or Red</td>\n<td>Fire</td>\n</tr>\n<tr>\n<td>5</td>\n<td>Green</td>\n<td>Poison</td>\n</tr>\n<tr>\n<td>6</td>\n<td>Your choice of dragon</td>\n<td>As the dragon</td>\n</tr>\n</tbody>\n</table>\n<hr />\n<p><strong>Heightened (+1)</strong> You shape 1 additional dragon, and the Strike damage increases by 1d6.</p>"
        },
        "duration": {
            "value": "1 minute"
        },
        "hasCounteractCheck": {
            "value": false
        },
        "level": {
            "value": 1
        },
        "location": {
            "value": ""
        },
        "materials": {
            "value": ""
        },
        "prepared": {
            "value": ""
        },
        "primarycheck": {
            "value": ""
        },
        "range": {
            "value": ""
        },
        "rules": [],
        "save": {
            "basic": "",
            "value": ""
        },
        "scaling": {
            "damage": {
                "0": "1d6"
            },
            "interval": 1
        },
        "school": {
            "value": "evocation"
        },
        "secondarycasters": {
            "value": ""
        },
        "secondarycheck": {
            "value": ""
        },
        "source": {
            "value": "Pathfinder Lost Omens: Gods & Magic"
        },
        "spellType": {
            "value": "attack"
        },
        "sustained": {
            "value": false
        },
        "target": {
            "value": ""
        },
        "time": {
            "value": "2"
        },
        "traditions": {
            "custom": "",
            "value": []
        },
        "traits": {
            "custom": "",
            "rarity": {
                "value": "uncommon"
            },
            "value": [
                "cleric"
            ]
        }
    },
    "effects": [],
    "flags": {},
    "img": "systems/pf2e/icons/spells/draconic-barrage.webp",
    "name": "Draconic Barrage",
    "type": "spell"
}
