{
    "_id": "qr0HOiiuqj5LKlDt",
    "data": {
        "ability": {
            "value": ""
        },
        "area": {
            "areaType": "",
            "value": null
        },
        "areasize": {
            "value": ""
        },
        "category": {
            "value": "spell"
        },
        "components": {
            "material": true,
            "somatic": true,
            "verbal": true
        },
        "cost": {
            "value": ""
        },
        "damage": {
            "value": {}
        },
        "description": {
            "value": "<p>You raise one or more pillars of solid sand from the earth. The total height of the pillars is 30 feet, which must be used in 10-foot increments (for example, you could create three 10-foot-tall pillars, one 20-foot-tall pillar and one 10-foot-tall pillar, or one 30-foot-tall pillar). Each pillar is 5 feet by 5 feet in length and width. The pillars must be conjured on a relatively flat area of natural earthen terrain such as sand, dirt, stone, or clay. Regardless of the terrain, the pillars are always made of tightly compacted sand particles that together become as hard and solid as stone (DC 15 Athletics to Climb).</p>\n<p>If a creature occupies the space where you cast this spell, it is carried upward atop the pillar. The creature can attempt a Reflex save (DC equal to the caster's spell DC); on a success, the creature can either attempt to Grab an Edge or move into an adjacent unoccupied square. If the pillar would rise higher than the ceiling, it firmly abuts the ceiling but does not rise any higher. A creature caught between a pillar and a ceiling takes no damage (subject to GM discretion, such as is in the case of stalactites or other hazards) but becomes immobilized. The creature can attempt an Escape check to free itself, but it must thereafter Grab an Edge, Climb down, or fall from the top of the pillar. The Grab an Edge and Escape DCs are the same as the Reflex save.</p>\n<p>As part of your action to Sustain the Spell, you can choose to either destroy one of your pillars, causing it to immediately crumble into nothing, or create a new pillar, as long as doing so wouldn't exceed the total number of feet of pillar you can create. You can Sustain the Spell two or more times on a single turn to destroy or create a pillar.</p>\n<hr />\n<p><strong>Heightened (+1)</strong> The total height of the pillars increases by 10 feet, but must still be used in 10-foot increments (this also increases the total number of pillars that can be created by one).</p>"
        },
        "duration": {
            "value": "sustained up to 1 minute"
        },
        "hasCounteractCheck": {
            "value": false
        },
        "level": {
            "value": 5
        },
        "location": {
            "value": ""
        },
        "materials": {
            "value": ""
        },
        "prepared": {
            "value": ""
        },
        "primarycheck": {
            "value": ""
        },
        "range": {
            "value": "120 feet"
        },
        "rules": [],
        "save": {
            "basic": "",
            "value": ""
        },
        "school": {
            "value": "conjuration"
        },
        "secondarycasters": {
            "value": ""
        },
        "secondarycheck": {
            "value": ""
        },
        "source": {
            "value": "Pathfinder #155: Lord of the Black Sands"
        },
        "spellType": {
            "value": "utility"
        },
        "sustained": {
            "value": false
        },
        "target": {
            "value": ""
        },
        "time": {
            "value": "3"
        },
        "traditions": {
            "custom": "",
            "value": [
                "arcane",
                "primal"
            ]
        },
        "traits": {
            "custom": "",
            "rarity": {
                "value": "uncommon"
            },
            "value": [
                "earth"
            ]
        }
    },
    "effects": [],
    "flags": {},
    "img": "systems/pf2e/icons/spells/pillars-of-sand.webp",
    "name": "Pillars of Sand",
    "type": "spell"
}
