{
    "_id": "vb2dFNtbofJ7A9BW",
    "data": {
        "ability": {
            "value": ""
        },
        "area": {
            "areaType": "",
            "value": ""
        },
        "autoHeightenLevel": {
            "value": null
        },
        "category": {
            "value": "spell"
        },
        "components": {
            "focus": false,
            "material": false,
            "somatic": true,
            "verbal": true
        },
        "cost": {
            "value": ""
        },
        "damage": {
            "value": {}
        },
        "description": {
            "value": "<p>You transform your eidolon into your identical twin. Assuming you are a humanoid, the eidolon gains the humanoid trait in addition to its other traits while it's in this form, as well as any other trait related to your form (such as elf or gnome). Your eidolon gains a +4 status bonus to Deception checks to Impersonate you and can add its level to such checks even if it's untrained.</p>\n<p>Although your eidolon looks like you, it doesn't gain any new abilities, and its statistics don't change in any way-the transformation is purely cosmetic. If this transformation reduces your eidolon's size, the eidolon loses any other effects of its larger size, such as any increase to reach. Your eidolon can still use gear only if it has the eidolon trait, which allows eidolons to use it. Any such eidolon items the eidolon was wearing change size and shape, if necessary, and its effects remain active.</p>\n<p>You can Dismiss the spell.</p>\n<p>@Compendium[pf2e.spell-effects.Spell Effect: Summoner's Visage]{Spell Effect: Summoner's Visage}</p>\n<hr />\n<p><strong>Heightened (4th)</strong> The duration increases to 1 hour.</p>"
        },
        "duration": {
            "value": "10 minutes"
        },
        "hasCounteractCheck": {
            "value": false
        },
        "level": {
            "value": 2
        },
        "location": {
            "value": ""
        },
        "materials": {
            "value": ""
        },
        "range": {
            "value": "touch"
        },
        "rules": [],
        "save": {
            "basic": "",
            "value": ""
        },
        "school": {
            "value": "transmutation"
        },
        "source": {
            "value": "Pathfinder Secrets of Magic"
        },
        "spellType": {
            "value": "utility"
        },
        "sustained": {
            "value": false
        },
        "target": {
            "value": "your eidolon"
        },
        "time": {
            "value": "2"
        },
        "traditions": {
            "custom": "",
            "value": [
                "arcane",
                "divine",
                "occult",
                "primal"
            ]
        },
        "traits": {
            "custom": "",
            "rarity": {
                "value": "common"
            },
            "value": [
                "polymorph"
            ]
        }
    },
    "effects": [],
    "flags": {},
    "img": "systems/pf2e/icons/spells/summoners-visage.webp",
    "name": "Summoner's Visage",
    "type": "spell"
}
