{
    "_id": "tvO6Kmc2pQve9DC5",
    "data": {
        "ability": {
            "value": ""
        },
        "area": {
            "areaType": "",
            "value": null
        },
        "areasize": {
            "value": ""
        },
        "category": {
            "value": "focus"
        },
        "components": {
            "material": false,
            "somatic": false,
            "verbal": true
        },
        "cost": {
            "value": ""
        },
        "damage": {
            "value": {}
        },
        "description": {
            "value": "<p>You travel on a rushing wind. Move two times: two Strides, two Steps, or one Stride and one Step (in either order). You can Stride or Step into the air during this movement, moving upward at a 45-degree angle at most; if you end your movement in the air, you fall after taking one action or when your turn ends, whichever comes first. A <em>@Compendium[pf2e.spells-srd.Wall of Wind]{Wall of Wind}</em> appears in all the spaces you left during this movement, lasting for 1 round.</p>\n<hr />\n<p><strong>Heightened (5th)</strong> The <em>wall of wind</em> lasts 3 rounds.</p>"
        },
        "duration": {
            "value": ""
        },
        "hasCounteractCheck": {
            "value": false
        },
        "level": {
            "value": 3
        },
        "location": {
            "value": ""
        },
        "materials": {
            "value": ""
        },
        "prepared": {
            "value": ""
        },
        "primarycheck": {
            "value": ""
        },
        "range": {
            "value": ""
        },
        "rules": [],
        "save": {
            "basic": "",
            "value": ""
        },
        "school": {
            "value": "evocation"
        },
        "secondarycasters": {
            "value": ""
        },
        "secondarycheck": {
            "value": ""
        },
        "source": {
            "value": "Pathfinder Lost Omens: World Guide"
        },
        "spellType": {
            "value": "utility"
        },
        "sustained": {
            "value": false
        },
        "target": {
            "value": ""
        },
        "time": {
            "value": "1"
        },
        "traditions": {
            "custom": "",
            "value": []
        },
        "traits": {
            "custom": "",
            "rarity": {
                "value": "uncommon"
            },
            "value": []
        }
    },
    "effects": [],
    "flags": {},
    "img": "systems/pf2e/icons/spells/unfolding-wind-rush.webp",
    "name": "Unfolding Wind Rush",
    "type": "spell"
}
