{
    "_id": "ca869lJo8E51WcW4",
    "data": {
        "actionCategory": {
            "value": ""
        },
        "actionType": {
            "value": "passive"
        },
        "actions": {
            "value": null
        },
        "description": {
            "value": "<p><strong>[Slotless]</strong></p>\n<p><strong>Prerequisites</strong>: Tier 4 with any faction, @Compendium[pf2e.pathfinder-society-boons.Hireling, Expert]{Expert Hireling}</p>\n<p><strong>Cost</strong>: 8 Fame</p>\n<p><strong>Effect</strong>: When you gain this boon, select one Hireling boon you possess that's already been modified by the Expert Hireling boon. The selected ally's proficiency for their selected skills improves to master, and their modifier to skill checks increases to 6 + your level.</p>\n<p><strong>Special</strong>: You can purchase this boon multiple times. Each time you purchase this boon, you must apply its benefits to a different @Compendium[pf2e.pathfinder-society-boons.Hireling]{Hireling} boon.</p>"
        },
        "featType": {
            "value": "pfsboon"
        },
        "level": {
            "value": 0
        },
        "prerequisites": {
            "value": []
        },
        "rules": [],
        "source": {
            "value": ""
        },
        "traits": {
            "custom": "",
            "rarity": {
                "value": "common"
            },
            "selected": {},
            "value": []
        }
    },
    "effects": [],
    "flags": {},
    "img": "systems/pf2e/icons/default-icons/mystery-man.webp",
    "name": "Hireling, Master",
    "type": "feat"
}
