{
    "_id": "T7gyK9LV14wI7Xdy",
    "data": {
        "actionCategory": {
            "value": ""
        },
        "actionType": {
            "value": "passive"
        },
        "actions": {
            "value": null
        },
        "description": {
            "value": "<p><strong>[Generic]</strong></p>\n<p><strong>Effect</strong>: You chose to destroy the undead Marcon Tinol, unwilling to risk the consequences of turning the ancient undead loose upon the world. This boon will have unique benefits and consequences in a future scenario.</p>"
        },
        "featType": {
            "value": "pfsboon"
        },
        "level": {
            "value": 0
        },
        "prerequisites": {
            "value": []
        },
        "rules": [],
        "source": {
            "value": ""
        },
        "traits": {
            "custom": "",
            "rarity": {
                "value": "common"
            },
            "selected": {},
            "value": []
        }
    },
    "effects": [],
    "flags": {},
    "img": "systems/pf2e/icons/default-icons/mystery-man.webp",
    "name": "S1-07 - To Seal and Protect",
    "type": "feat"
}
