{
    "_id": "NR19RYJLveHrFYvf",
    "data": {
        "actionCategory": {
            "value": ""
        },
        "actionType": {
            "value": "passive"
        },
        "actions": {
            "value": null
        },
        "description": {
            "value": "<p><strong>[Generic]</strong></p>\n<p><strong>Effect</strong>: You have made close friends in the Lands of the Linnorm Kings by retrieving Grehunde's gorget and the body of her heroic descendant, Hlavard. This boon has special benefits when slotted during <em>Pathfinder Society Scenario #1-10: Tarnbreaker's Trail</em>, and may have other benefits in scenarios and quests that feature Grehunde's descendants.</p>"
        },
        "featType": {
            "value": "pfsboon"
        },
        "level": {
            "value": 0
        },
        "prerequisites": {
            "value": []
        },
        "rules": [],
        "source": {
            "value": ""
        },
        "traits": {
            "custom": "",
            "rarity": {
                "value": "common"
            },
            "selected": {},
            "value": []
        }
    },
    "effects": [],
    "flags": {},
    "img": "systems/pf2e/icons/default-icons/mystery-man.webp",
    "name": "S1-Q03 - Legacy of the Gorget",
    "type": "feat"
}
