{
    "_id": "RyGaB5hDRcOeb34Q",
    "data": {
        "description": {
            "value": "<p>Granted by @Compendium[pf2e.feats-srd.Emblazon Antimagic]{Emblazon Antimagic}.</p>\n<p>When the weapon's wielder critically hits with the weapon, they can attempt to counteract a spell on their target, using half their level, rounded up, as the counteract level. If they attempt to do so, the emblazoned symbol immediately disappears.</p>"
        },
        "duration": {
            "expiry": "turn-start",
            "sustained": false,
            "unit": "unlimited",
            "value": -1
        },
        "level": {
            "value": 12
        },
        "rules": [
            {
                "key": "EffectTarget",
                "scope": "weapon"
            },
            {
                "key": "Note",
                "selector": "{item|data.target}-attack",
                "text": "<p class='compact-text'><strong>{item|name}</strong> When you critically hit with the this weapon, you can attempt to counteract a spell on your target, using half your level (rounded up) as the counteract level. If you do this, the emblazon symbol immediately disappears.</p>"
            }
        ],
        "source": {
            "value": ""
        },
        "start": {
            "initiative": null,
            "value": 0
        },
        "target": null,
        "tokenIcon": {
            "show": true
        },
        "traits": {
            "custom": "",
            "rarity": {
                "value": "common"
            },
            "value": []
        }
    },
    "effects": [],
    "flags": {},
    "img": "systems/pf2e/icons/spells/spiritual-weapon.webp",
    "name": "Effect: Emblazon Antimagic (Weapon)",
    "type": "effect"
}
