{
    "_id": "ed9iJxdHuft6bDFF",
    "data": {
        "description": {
            "value": "<p>Applied when you apply a poison created with @Compendium[pf2e.feats-srd.Deadly Poison Weapon]{Deadly Poison Weapon}.</p>"
        },
        "duration": {
            "expiry": "turn-start",
            "sustained": false,
            "unit": "days",
            "value": 1
        },
        "level": {
            "value": 1
        },
        "rules": [
            {
                "key": "EffectTarget",
                "scope": "weapon"
            },
            {
                "damageType": "poison",
                "diceNumber": 4,
                "dieSize": "d4",
                "key": "DamageDice",
                "selector": "{item|data.target}-damage"
            }
        ],
        "source": {
            "value": ""
        },
        "start": {
            "initiative": null,
            "value": 0
        },
        "target": null,
        "tokenIcon": {
            "show": true
        },
        "traits": {
            "custom": "",
            "rarity": {
                "value": "common"
            },
            "value": []
        }
    },
    "effects": [],
    "flags": {},
    "img": "systems/pf2e/icons/equipment/alchemical-items/alchemical-poisons/hunting-spider-venom.webp",
    "name": "Effect: Deadly Poison Weapon",
    "type": "effect"
}
