{
    "_id": "1We96Iyv6MkFvEN8",
    "content": "<p>Play after making a successful melee attack.</p>\n<hr />\n<p>You unleash a terrifying battle cry. Attempt an Intimidation check to @Compendium[pf2e.actionspf2e.Demoralize]{Demoralize} and compare the result against all enemies within 30 feet.</p>",
    "flags": {},
    "name": "Battle Cry",
    "permission": {
        "default": 0
    }
}
