{
    "_id": "jzsxn0vnoWD41AkQ",
    "content": "<p>Play before you attempt a Will save.</p>\n<hr />\n<p>You succeed at the saving throw without needing to roll. You gain the @Compendium[pf2e.conditionitems.Stupefied]{Stupefied 1} condition, which lasts until the next time you get a full night's rest.</p>",
    "flags": {},
    "name": "Cut Through the Fog",
    "permission": {
        "default": 0
    }
}
