{
    "_id": "W07rvt5FRZQ7Uwl7",
    "content": "<p>Play before you attempt a Fortitude save.</p>\n<hr />\n<p>You succeed at the saving throw without needing to roll. You gain the @Compendium[pf2e.conditionitems.Drained]{Drained 1} condition.</p>",
    "flags": {},
    "name": "Push Through the Pain",
    "permission": {
        "default": 0
    }
}
