{
    "_id": "6Vnr4v3SspJH87lQ",
    "content": "<p>Play after taking two consecutive Stride actions.</p>\n<hr />\n<p>Make a melee Strike. You are @Compendium[pf2e.conditionitems.Flat-Footed]{Flat-Footed} until the start of your next turn.</p>",
    "flags": {},
    "name": "Reckless Charge",
    "permission": {
        "default": 0
    }
}
